(footprint "LOGO" (version 20221018) (generator bitmap2component)
  (layer "F.Cu")
  (attr board_only exclude_from_pos_files exclude_from_bom)
  (fp_text reference "G***" (at 0 0) (layer "F.SilkS")
      (effects (font (size 1.5 1.5) (thickness 0.3)))
    (tstamp d185f969-aefd-4b3d-8c8d-2691d3f120c9)
  )
  (fp_text value "LOGO" (at 0.75 0) (layer "F.SilkS") hide
      (effects (font (size 1.5 1.5) (thickness 0.3)))
    (tstamp 5e396128-f411-4f91-9237-aded610ba7c9)
  )
  (fp_poly
    (pts
      (xy -143.456338 0.178874)
      (xy -143.456338 44.360564)
      (xy -174.401408 44.360564)
      (xy -205.346478 44.360564)
      (xy -205.346478 25.221127)
      (xy -196.402817 25.221127)
      (xy -196.359495 26.022811)
      (xy -196.092010 26.379083)
      (xy -195.394081 26.470440)
      (xy -194.971831 26.473240)
      (xy -194.055860 26.508747)
      (xy -193.648845 26.747211)
      (xy -193.544263 27.386548)
      (xy -193.540845 27.844601)
      (xy -193.466662 28.954629)
      (xy -193.153852 29.507207)
      (xy -192.467024 29.652894)
      (xy -191.943843 29.620476)
      (xy -191.230862 29.471230)
      (xy -190.873475 29.063256)
      (xy -190.690787 28.176704)
      (xy -190.678873 28.083099)
      (xy -190.512765 27.160683)
      (xy -190.178976 26.729773)
      (xy -189.458474 26.568228)
      (xy -189.158450 26.541081)
      (xy -188.278743 26.415279)
      (xy -187.902424 26.097847)
      (xy -187.817585 25.380289)
      (xy -187.816901 25.221127)
      (xy -187.875709 24.423522)
      (xy -188.193403 24.058112)
      (xy -188.981890 23.916403)
      (xy -189.158450 23.901173)
      (xy -189.999312 23.788433)
      (xy -190.405763 23.493415)
      (xy -190.565506 22.802674)
      (xy -190.610998 22.249409)
      (xy -190.708595 21.291295)
      (xy -190.939115 20.862680)
      (xy -191.486715 20.779407)
      (xy -192.041984 20.818423)
      (xy -192.873766 20.933187)
      (xy -193.273757 21.236138)
      (xy -193.430542 21.942258)
      (xy -193.471978 22.448592)
      (xy -193.573378 23.400907)
      (xy -193.826063 23.839051)
      (xy -194.429715 23.962707)
      (xy -194.992400 23.969014)
      (xy -195.899973 24.008541)
      (xy -196.299986 24.250055)
      (xy -196.400155 24.877960)
      (xy -196.402817 25.221127)
      (xy -205.346478 25.221127)
      (xy -205.346478 12.163381)
      (xy -184.688629 12.163381)
      (xy -184.454555 13.627195)
      (xy -183.706520 16.136751)
      (xy -182.350346 18.310937)
      (xy -180.446500 20.069135)
      (xy -178.971796 20.937266)
      (xy -177.804850 21.502378)
      (xy -176.846618 21.966262)
      (xy -176.369014 22.197319)
      (xy -176.071331 22.526743)
      (xy -175.924440 23.242490)
      (xy -175.904111 24.488362)
      (xy -175.915588 24.888536)
      (xy -176.351004 28.312848)
      (xy -177.440428 31.709145)
      (xy -178.193452 33.341157)
      (xy -179.241285 35.416902)
      (xy -174.401408 35.416902)
      (xy -169.561531 35.416902)
      (xy -170.599697 33.359860)
      (xy -171.958749 30.111539)
      (xy -172.771089 26.745646)
      (xy -172.960564 25.221127)
      (xy -160.985915 25.221127)
      (xy -160.927107 26.018732)
      (xy -160.609413 26.384142)
      (xy -159.820926 26.525852)
      (xy -159.644366 26.541081)
      (xy -158.749403 26.681653)
      (xy -158.342000 27.026608)
      (xy -158.197999 27.725353)
      (xy -158.032145 28.876294)
      (xy -157.738894 29.466654)
      (xy -157.190235 29.651348)
      (xy -156.627116 29.626371)
      (xy -155.890842 29.494417)
      (xy -155.560352 29.145441)
      (xy -155.467500 28.356725)
      (xy -155.461980 28.083099)
      (xy -155.413679 27.184241)
      (xy -155.169263 26.754632)
      (xy -154.526249 26.591866)
      (xy -153.920422 26.542107)
      (xy -152.966903 26.435985)
      (xy -152.528531 26.186835)
      (xy -152.405607 25.621155)
      (xy -152.400000 25.221127)
      (xy -152.446621 24.458303)
      (xy -152.719616 24.089400)
      (xy -153.418682 23.940916)
      (xy -153.920422 23.900148)
      (xy -154.873253 23.798239)
      (xy -155.314717 23.542222)
      (xy -155.447305 22.929686)
      (xy -155.462060 22.359155)
      (xy -155.518932 21.438008)
      (xy -155.780000 21.009401)
      (xy -156.436168 20.850504)
      (xy -156.782047 20.818423)
      (xy -157.594146 20.784200)
      (xy -157.986276 20.987249)
      (xy -158.139852 21.611713)
      (xy -158.191818 22.249409)
      (xy -158.298925 23.214652)
      (xy -158.559941 23.678643)
      (xy -159.162566 23.854827)
      (xy -159.644366 23.901173)
      (xy -160.524073 24.026975)
      (xy -160.900393 24.344408)
      (xy -160.985231 25.061966)
      (xy -160.985915 25.221127)
      (xy -172.960564 25.221127)
      (xy -173.004370 24.868662)
      (xy -173.243194 22.233144)
      (xy -171.849195 21.857779)
      (xy -169.412767 20.844392)
      (xy -167.344371 19.247788)
      (xy -165.714529 17.135457)
      (xy -164.756166 15.069811)
      (xy -164.451488 14.238608)
      (xy -164.234021 13.582251)
      (xy -164.172195 13.080218)
      (xy -164.334435 12.711986)
      (xy -164.789171 12.457034)
      (xy -165.604829 12.294838)
      (xy -166.849838 12.204877)
      (xy -168.592625 12.166629)
      (xy -170.901617 12.159571)
      (xy -173.845242 12.163182)
      (xy -174.447131 12.163381)
      (xy -184.688629 12.163381)
      (xy -205.346478 12.163381)
      (xy -205.346478 8.943662)
      (xy -196.402817 8.943662)
      (xy -194.971831 8.943662)
      (xy -193.540845 8.943662)
      (xy -193.540845 10.374648)
      (xy -193.540845 11.805634)
      (xy -192.109859 11.805634)
      (xy -190.678873 11.805634)
      (xy -190.678873 10.374648)
      (xy -190.678873 8.943662)
      (xy -189.247887 8.943662)
      (xy -187.816901 8.943662)
      (xy -160.985915 8.943662)
      (xy -159.554929 8.943662)
      (xy -158.123943 8.943662)
      (xy -158.123943 10.374648)
      (xy -158.087858 11.290657)
      (xy -157.850548 11.697736)
      (xy -157.218431 11.802406)
      (xy -156.782394 11.805869)
      (xy -155.904521 11.762222)
      (xy -155.528816 11.488858)
      (xy -155.442270 10.772770)
      (xy -155.440845 10.464320)
      (xy -155.403374 9.624883)
      (xy -155.158665 9.219628)
      (xy -154.508267 9.061434)
      (xy -153.900112 9.011537)
      (xy -152.941998 8.913940)
      (xy -152.513383 8.683420)
      (xy -152.430110 8.135820)
      (xy -152.469126 7.580551)
      (xy -152.595860 6.726208)
      (xy -152.933408 6.311989)
      (xy -153.703733 6.121965)
      (xy -154.009859 6.081691)
      (xy -154.927326 5.919678)
      (xy -155.338634 5.606938)
      (xy -155.451061 4.938553)
      (xy -155.457332 4.650705)
      (xy -155.526307 3.821290)
      (xy -155.847652 3.444823)
      (xy -156.637596 3.301590)
      (xy -156.798881 3.287560)
      (xy -158.123943 3.176528)
      (xy -158.123943 4.629109)
      (xy -158.123943 6.081691)
      (xy -159.554929 6.081691)
      (xy -160.985915 6.081691)
      (xy -160.985915 7.512676)
      (xy -160.985915 8.943662)
      (xy -187.816901 8.943662)
      (xy -187.816901 7.512676)
      (xy -187.816901 6.081691)
      (xy -189.247887 6.081691)
      (xy -190.678873 6.081691)
      (xy -190.678873 4.629109)
      (xy -190.678873 3.176528)
      (xy -192.020422 3.287560)
      (xy -192.906127 3.417989)
      (xy -193.307912 3.764116)
      (xy -193.457181 4.557344)
      (xy -193.473004 4.740141)
      (xy -193.589768 5.604313)
      (xy -193.895936 5.984548)
      (xy -194.616387 6.079269)
      (xy -194.993426 6.081691)
      (xy -195.895554 6.117032)
      (xy -196.296413 6.360753)
      (xy -196.399430 7.019394)
      (xy -196.402817 7.512676)
      (xy -196.402817 8.943662)
      (xy -205.346478 8.943662)
      (xy -205.346478 2.523701)
      (xy -180.105766 2.523701)
      (xy -180.069838 4.251322)
      (xy -179.504492 5.829867)
      (xy -178.502456 7.169907)
      (xy -177.156457 8.182011)
      (xy -175.559222 8.776748)
      (xy -173.803479 8.864688)
      (xy -171.981954 8.356399)
      (xy -171.740108 8.239290)
      (xy -170.233777 7.111356)
      (xy -169.239464 5.618906)
      (xy -168.766322 3.906399)
      (xy -168.823503 2.118293)
      (xy -169.420160 0.399047)
      (xy -170.565444 -1.106881)
      (xy -171.118487 -1.572463)
      (xy -171.951340 -2.035048)
      (xy -173.013720 -2.266907)
      (xy -174.401408 -2.325352)
      (xy -176.262420 -2.162760)
      (xy -177.649275 -1.603091)
      (xy -178.742242 -0.538504)
      (xy -179.519549 0.736437)
      (xy -180.105766 2.523701)
      (xy -205.346478 2.523701)
      (xy -205.346478 0.178874)
      (xy -205.346478 -8.585915)
      (xy -196.402817 -8.585915)
      (xy -194.971831 -8.585915)
      (xy -194.055349 -8.546658)
      (xy -193.648021 -8.314432)
      (xy -193.543825 -7.717550)
      (xy -193.540845 -7.393427)
      (xy -193.460417 -6.374858)
      (xy -193.096948 -5.881512)
      (xy -192.267156 -5.730109)
      (xy -191.871361 -5.723943)
      (xy -191.107626 -5.771051)
      (xy -190.768186 -6.049723)
      (xy -190.681357 -6.765982)
      (xy -190.678873 -7.154929)
      (xy -190.678873 -8.585915)
      (xy -189.247887 -8.585915)
      (xy -187.816901 -8.585915)
      (xy -187.816901 -10.016901)
      (xy -187.816901 -11.447887)
      (xy -178.916430 -11.447887)
      (xy -178.805398 -10.106338)
      (xy -178.691158 -9.261334)
      (xy -178.391806 -8.855441)
      (xy -177.692227 -8.697266)
      (xy -177.173943 -8.654782)
      (xy -176.221628 -8.553382)
      (xy -175.783484 -8.300697)
      (xy -175.659828 -7.697044)
      (xy -175.653521 -7.134360)
      (xy -175.613994 -6.226786)
      (xy -175.372480 -5.826774)
      (xy -174.744575 -5.726605)
      (xy -174.401408 -5.723943)
      (xy -173.595700 -5.768467)
      (xy -173.240584 -6.040516)
      (xy -173.151658 -6.747806)
      (xy -173.149295 -7.134360)
      (xy -173.114263 -8.020307)
      (xy -172.876043 -8.443986)
      (xy -172.311219 -8.585915)
      (xy -160.985915 -8.585915)
      (xy -159.554929 -8.585915)
      (xy -158.123943 -8.585915)
      (xy -158.123943 -7.154929)
      (xy -158.085561 -6.238636)
      (xy -157.852206 -5.831417)
      (xy -157.246565 -5.727073)
      (xy -156.893426 -5.723943)
      (xy -156.082071 -5.781073)
      (xy -155.711086 -6.093838)
      (xy -155.568412 -6.874299)
      (xy -155.551877 -7.065493)
      (xy -155.437637 -7.910496)
      (xy -155.138285 -8.316389)
      (xy -154.438706 -8.474564)
      (xy -153.920422 -8.517048)
      (xy -152.968033 -8.618884)
      (xy -152.529893 -8.871081)
      (xy -152.406281 -9.470659)
      (xy -152.400000 -10.016901)
      (xy -152.436021 -10.890104)
      (xy -152.677234 -11.308068)
      (xy -153.323358 -11.467813)
      (xy -153.920422 -11.516754)
      (xy -154.873018 -11.619647)
      (xy -155.311169 -11.870799)
      (xy -155.434661 -12.460977)
      (xy -155.440845 -12.968544)
      (xy -155.484637 -13.846562)
      (xy -155.758020 -14.222286)
      (xy -156.473998 -14.308722)
      (xy -156.782394 -14.310093)
      (xy -157.641146 -14.271453)
      (xy -158.022744 -14.018255)
      (xy -158.120768 -13.343979)
      (xy -158.123943 -12.878873)
      (xy -158.123943 -11.447887)
      (xy -159.554929 -11.447887)
      (xy -160.985915 -11.447887)
      (xy -160.985915 -10.016901)
      (xy -160.985915 -8.585915)
      (xy -172.311219 -8.585915)
      (xy -172.234953 -8.605079)
      (xy -171.628873 -8.654782)
      (xy -170.675716 -8.759824)
      (xy -170.237449 -9.009449)
      (xy -170.114296 -9.582635)
      (xy -170.108450 -10.016901)
      (xy -170.152260 -10.805023)
      (xy -170.416872 -11.185094)
      (xy -171.102064 -11.336090)
      (xy -171.628873 -11.379020)
      (xy -172.581188 -11.480420)
      (xy -173.019332 -11.733105)
      (xy -173.142988 -12.336758)
      (xy -173.149295 -12.899442)
      (xy -173.188822 -13.807016)
      (xy -173.430336 -14.207028)
      (xy -174.058241 -14.307197)
      (xy -174.401408 -14.309859)
      (xy -175.203092 -14.266537)
      (xy -175.559364 -13.999052)
      (xy -175.650721 -13.301123)
      (xy -175.653521 -12.878873)
      (xy -175.653521 -11.447887)
      (xy -177.284975 -11.447887)
      (xy -178.916430 -11.447887)
      (xy -187.816901 -11.447887)
      (xy -189.247887 -11.447887)
      (xy -190.678873 -11.447887)
      (xy -190.678873 -12.878873)
      (xy -190.678873 -14.309859)
      (xy -192.109859 -14.309859)
      (xy -193.540845 -14.309859)
      (xy -193.540845 -12.878873)
      (xy -193.540845 -11.447887)
      (xy -194.971831 -11.447887)
      (xy -196.402817 -11.447887)
      (xy -196.402817 -10.016901)
      (xy -196.402817 -8.585915)
      (xy -205.346478 -8.585915)
      (xy -205.346478 -20.391549)
      (xy -184.597183 -20.391549)
      (xy -184.597183 -19.318309)
      (xy -184.597183 -18.245070)
      (xy -174.401408 -18.245070)
      (xy -164.205633 -18.245070)
      (xy -164.205633 -19.318309)
      (xy -164.205633 -20.391549)
      (xy -174.401408 -20.391549)
      (xy -184.597183 -20.391549)
      (xy -205.346478 -20.391549)
      (xy -205.346478 -26.935940)
      (xy -187.425291 -26.935940)
      (xy -187.068131 -25.148471)
      (xy -186.594212 -24.165822)
      (xy -185.969576 -23.196465)
      (xy -185.431018 -22.711390)
      (xy -184.756873 -22.548945)
      (xy -184.362085 -22.538028)
      (xy -183.083908 -22.538028)
      (xy -183.716532 -23.521831)
      (xy -184.329075 -24.460653)
      (xy -184.830916 -25.211291)
      (xy -185.315754 -26.437786)
      (xy -185.222704 -27.653811)
      (xy -184.624974 -28.671596)
      (xy -183.595774 -29.303370)
      (xy -183.201168 -29.391396)
      (xy -182.691565 -29.406818)
      (xy -182.426019 -29.151437)
      (xy -182.311688 -28.456552)
      (xy -182.275203 -27.708875)
      (xy -181.886947 -25.634108)
      (xy -181.222435 -24.220847)
      (xy -180.587021 -23.229766)
      (xy -180.050522 -22.726102)
      (xy -179.403833 -22.551480)
      (xy -179.000610 -22.538028)
      (xy -177.764983 -22.538028)
      (xy -179.034604 -24.808323)
      (xy -179.819645 -26.324217)
      (xy -180.200903 -27.432215)
      (xy -180.197564 -28.301508)
      (xy -179.828812 -29.101283)
      (xy -179.562767 -29.465839)
      (xy -178.771425 -30.168700)
      (xy -177.725044 -30.403847)
      (xy -177.487837 -30.408450)
      (xy -176.565645 -30.348310)
      (xy -175.944047 -30.090678)
      (xy -175.564872 -29.519734)
      (xy -175.369952 -28.519661)
      (xy -175.301117 -26.974638)
      (xy -175.295774 -26.043943)
      (xy -175.290039 -24.439931)
      (xy -175.250393 -23.419455)
      (xy -175.143173 -22.850559)
      (xy -174.934717 -22.601286)
      (xy -174.591363 -22.539681)
      (xy -174.401408 -22.538028)
      (xy -173.992221 -22.560509)
      (xy -173.731896 -22.715922)
      (xy -173.586769 -23.136224)
      (xy -173.523179 -23.953372)
      (xy -173.507464 -25.299321)
      (xy -173.507042 -26.043943)
      (xy -173.476837 -27.880074)
      (xy -173.347442 -29.117708)
      (xy -173.060686 -29.872663)
      (xy -172.558402 -30.260758)
      (xy -171.782418 -30.397813)
      (xy -171.314979 -30.408450)
      (xy -170.188074 -30.239878)
      (xy -169.376444 -29.630957)
      (xy -169.240049 -29.465839)
      (xy -168.720113 -28.643950)
      (xy -168.557340 -27.825274)
      (xy -168.770917 -26.840622)
      (xy -169.380030 -25.520805)
      (xy -169.768212 -24.808323)
      (xy -171.037834 -22.538028)
      (xy -169.802206 -22.538028)
      (xy -169.030915 -22.612391)
      (xy -168.468479 -22.941065)
      (xy -167.905792 -23.682428)
      (xy -167.580381 -24.220847)
      (xy -166.723591 -26.276871)
      (xy -166.522029 -27.708875)
      (xy -166.450132 -28.773032)
      (xy -166.285459 -29.292214)
      (xy -165.937445 -29.436935)
      (xy -165.615113 -29.416394)
      (xy -164.493425 -28.974224)
      (xy -163.752170 -28.076581)
      (xy -163.466167 -26.914927)
      (xy -163.710234 -25.680728)
      (xy -163.971900 -25.211291)
      (xy -164.522311 -24.387019)
      (xy -165.086284 -23.521831)
      (xy -165.718908 -22.538028)
      (xy -164.440731 -22.538028)
      (xy -163.637364 -22.610052)
      (xy -163.066690 -22.933892)
      (xy -162.507046 -23.671196)
      (xy -162.208604 -24.165822)
      (xy -161.490230 -25.968563)
      (xy -161.432980 -27.719745)
      (xy -162.029536 -29.315913)
      (xy -162.627292 -30.083601)
      (xy -163.679173 -30.893525)
      (xy -164.942314 -31.467757)
      (xy -166.153206 -31.710969)
      (xy -166.869660 -31.618379)
      (xy -167.552876 -31.614259)
      (xy -168.530217 -31.882927)
      (xy -168.841060 -32.011420)
      (xy -170.267914 -32.436936)
      (xy -171.872690 -32.419623)
      (xy -171.952103 -32.409712)
      (xy -173.427655 -32.244703)
      (xy -174.581727 -32.202956)
      (xy -175.797635 -32.284472)
      (xy -176.850713 -32.409712)
      (xy -178.472278 -32.444954)
      (xy -179.898442 -32.039605)
      (xy -179.961756 -32.011420)
      (xy -180.962148 -31.671637)
      (xy -181.772658 -31.583858)
      (xy -181.933156 -31.618379)
      (xy -182.931404 -31.686620)
      (xy -184.179897 -31.352209)
      (xy -185.415129 -30.710477)
      (xy -186.175524 -30.083601)
      (xy -187.125315 -28.615467)
      (xy -187.425291 -26.935940)
      (xy -205.346478 -26.935940)
      (xy -205.346478 -35.774647)
      (xy -176.369014 -35.774647)
      (xy -176.116049 -35.176743)
      (xy -175.653521 -35.059155)
      (xy -175.055616 -34.806190)
      (xy -174.938028 -34.343662)
      (xy -174.714339 -33.760968)
      (xy -174.401408 -33.628169)
      (xy -173.964388 -33.926420)
      (xy -173.864788 -34.343662)
      (xy -173.611823 -34.941566)
      (xy -173.149295 -35.059155)
      (xy -172.551391 -35.312119)
      (xy -172.433802 -35.774647)
      (xy -172.686767 -36.372552)
      (xy -173.149295 -36.490140)
      (xy -173.747200 -36.743105)
      (xy -173.864788 -37.205633)
      (xy -174.088477 -37.788327)
      (xy -174.401408 -37.921126)
      (xy -174.838429 -37.622875)
      (xy -174.938028 -37.205633)
      (xy -175.190993 -36.607729)
      (xy -175.653521 -36.490140)
      (xy -176.251425 -36.237175)
      (xy -176.369014 -35.774647)
      (xy -205.346478 -35.774647)
      (xy -205.346478 -44.002816)
      (xy -174.401408 -44.002816)
      (xy -143.456338 -44.002816)
    )

    (stroke (width 0.000000) (type solid)) (fill solid) (layer "F.SilkS") (tstamp 5e19e902-805e-467d-abbd-09e781292ad7))
  (fp_poly
    (pts
      (xy -123.064788 0.178874)
      (xy -123.064788 44.360564)
      (xy -124.495774 44.360564)
      (xy -125.926760 44.360564)
      (xy -125.926760 0.178874)
      (xy -125.926760 -44.002816)
      (xy -124.495774 -44.002816)
      (xy -123.064788 -44.002816)
    )

    (stroke (width 0.000000) (type solid)) (fill solid) (layer "F.SilkS") (tstamp 3999f875-3698-4bd6-a70b-31d26e189740))
  (fp_poly
    (pts
      (xy -64.698823 17.420131)
      (xy -62.826539 17.929616)
      (xy -61.800704 18.332633)
      (xy -60.798447 18.793890)
      (xy -60.295274 19.215725)
      (xy -60.120236 19.809694)
      (xy -60.101408 20.435604)
      (xy -60.121847 21.314534)
      (xy -60.172720 21.790106)
      (xy -60.190845 21.818004)
      (xy -60.529747 21.666861)
      (xy -61.330378 21.275546)
      (xy -62.387738 20.744764)
      (xy -64.403593 19.931754)
      (xy -66.128640 19.715043)
      (xy -67.661001 20.090380)
      (xy -68.366109 20.485707)
      (xy -69.714532 21.761253)
      (xy -70.567291 23.483719)
      (xy -70.943945 25.699485)
      (xy -70.966567 26.652113)
      (xy -70.701979 29.101932)
      (xy -69.984995 31.031111)
      (xy -68.863670 32.409316)
      (xy -67.386063 33.206217)
      (xy -65.600229 33.391481)
      (xy -63.554227 32.934776)
      (xy -62.077090 32.262837)
      (xy -60.062604 31.171745)
      (xy -60.171443 32.668267)
      (xy -60.313115 33.651335)
      (xy -60.687322 34.253180)
      (xy -61.494793 34.760670)
      (xy -61.711267 34.868874)
      (xy -62.993571 35.302660)
      (xy -64.616565 35.584410)
      (xy -66.311473 35.693809)
      (xy -67.809515 35.610541)
      (xy -68.676633 35.395346)
      (xy -70.618744 34.209529)
      (xy -72.094913 32.492321)
      (xy -73.089879 30.268047)
      (xy -73.587790 27.568088)
      (xy -73.548202 24.855671)
      (xy -72.981164 22.448715)
      (xy -71.928529 20.422941)
      (xy -70.432149 18.854070)
      (xy -68.533877 17.817824)
      (xy -68.125674 17.685783)
      (xy -66.385710 17.346983)
    )

    (stroke (width 0.000000) (type solid)) (fill solid) (layer "F.SilkS") (tstamp 8df40933-4e39-4467-8bfc-0b422e7148cd))
  (fp_poly
    (pts
      (xy -29.417242 17.647886)
      (xy -27.431556 18.468316)
      (xy -25.866625 19.861863)
      (xy -24.706696 21.841201)
      (xy -24.123727 23.595939)
      (xy -23.745799 26.280733)
      (xy -23.935571 28.965071)
      (xy -24.558665 31.123944)
      (xy -25.427962 32.608287)
      (xy -26.673855 34.000422)
      (xy -28.053925 35.045898)
      (xy -28.518791 35.280687)
      (xy -29.687191 35.581135)
      (xy -31.231442 35.726176)
      (xy -32.840855 35.710176)
      (xy -34.204739 35.527498)
      (xy -34.649478 35.391879)
      (xy -36.554467 34.257691)
      (xy -38.032842 32.576781)
      (xy -39.052998 30.399002)
      (xy -39.583330 27.774205)
      (xy -39.600686 27.582268)
      (xy -39.588486 26.924925)
      (xy -37.042456 26.924925)
      (xy -36.751093 28.847961)
      (xy -36.141489 30.604216)
      (xy -35.242135 32.043376)
      (xy -34.081520 33.015128)
      (xy -33.525765 33.246892)
      (xy -31.976934 33.459870)
      (xy -30.326873 33.290993)
      (xy -28.930139 32.781521)
      (xy -28.790974 32.695915)
      (xy -27.782776 31.646926)
      (xy -27.037586 30.099200)
      (xy -26.583854 28.229953)
      (xy -26.450031 26.216399)
      (xy -26.664565 24.235755)
      (xy -27.175789 22.634856)
      (xy -28.202516 21.134456)
      (xy -29.591233 20.151884)
      (xy -31.192923 19.704167)
      (xy -32.858568 19.808335)
      (xy -34.439148 20.481416)
      (xy -35.722209 21.658253)
      (xy -36.556504 23.179758)
      (xy -36.987089 24.985419)
      (xy -37.042456 26.924925)
      (xy -39.588486 26.924925)
      (xy -39.551163 24.913933)
      (xy -38.973299 22.481084)
      (xy -37.914974 20.389944)
      (xy -36.424067 18.746733)
      (xy -35.274359 17.984118)
      (xy -34.090973 17.602890)
      (xy -32.455807 17.405462)
      (xy -31.839436 17.387898)
    )

    (stroke (width 0.000000) (type solid)) (fill solid) (layer "F.SilkS") (tstamp 4163c4b8-b2fd-40ae-a58e-72e63af07bcd))
  (fp_poly
    (pts
      (xy 3.337807 17.941024)
      (xy 5.113563 19.113677)
      (xy 6.519997 20.783657)
      (xy 7.487462 22.884311)
      (xy 7.946313 25.348986)
      (xy 7.972951 25.982902)
      (xy 7.920412 27.557159)
      (xy 7.745375 29.126463)
      (xy 7.540647 30.129675)
      (xy 6.780209 31.869492)
      (xy 5.589721 33.497603)
      (xy 4.164896 34.772075)
      (xy 3.445775 35.191661)
      (xy 1.906808 35.632893)
      (xy 0.032314 35.754022)
      (xy -1.875835 35.559983)
      (xy -3.465955 35.078672)
      (xy -5.156891 33.930630)
      (xy -6.468035 32.240681)
      (xy -7.360177 30.096148)
      (xy -7.760024 27.781645)
      (xy -5.237008 27.781645)
      (xy -4.759831 29.851261)
      (xy -3.845472 31.576403)
      (xy -2.547977 32.835038)
      (xy -1.788549 33.244565)
      (xy -0.463752 33.496262)
      (xy 1.066921 33.359243)
      (xy 2.441749 32.880409)
      (xy 2.808896 32.648462)
      (xy 3.930677 31.663432)
      (xy 4.654351 30.591759)
      (xy 5.073424 29.230313)
      (xy 5.281404 27.375965)
      (xy 5.288171 27.262674)
      (xy 5.220255 24.697755)
      (xy 4.701444 22.643776)
      (xy 3.747706 21.122243)
      (xy 2.375010 20.154664)
      (xy 0.599323 19.762546)
      (xy -0.271061 19.775239)
      (xy -2.116007 20.198455)
      (xy -3.531941 21.173578)
      (xy -4.532598 22.716457)
      (xy -5.131713 24.842942)
      (xy -5.222960 25.489591)
      (xy -5.237008 27.781645)
      (xy -7.760024 27.781645)
      (xy -7.794107 27.584357)
      (xy -7.790734 25.446810)
      (xy -7.323110 22.826045)
      (xy -6.345675 20.667027)
      (xy -4.886931 19.003937)
      (xy -2.975378 17.870959)
      (xy -1.043089 17.354307)
      (xy 1.262374 17.332349)
    )

    (stroke (width 0.000000) (type solid)) (fill solid) (layer "F.SilkS") (tstamp e3bcb5c9-bd5f-48a2-8d48-d814a311377c))
  (fp_poly
    (pts
      (xy 43.486092 17.946481)
      (xy 44.210701 18.267430)
      (xy 45.243871 18.828808)
      (xy 45.789262 19.327487)
      (xy 46.021814 19.970463)
      (xy 46.081455 20.480986)
      (xy 46.113426 21.341942)
      (xy 46.053856 21.799772)
      (xy 46.025034 21.822536)
      (xy 45.641625 21.670872)
      (xy 44.825665 21.279090)
      (xy 44.052689 20.886125)
      (xy 41.872567 20.025848)
      (xy 39.907133 19.796269)
      (xy 38.203838 20.188545)
      (xy 36.810137 21.193835)
      (xy 35.971584 22.391934)
      (xy 35.481171 23.821226)
      (xy 35.228963 25.616287)
      (xy 35.215511 27.522180)
      (xy 35.441369 29.283963)
      (xy 35.907087 30.646697)
      (xy 35.953522 30.728802)
      (xy 37.186908 32.279390)
      (xy 38.675025 33.167666)
      (xy 40.425865 33.395176)
      (xy 42.447425 32.963461)
      (xy 44.002968 32.282724)
      (xy 46.149296 31.175777)
      (xy 46.149296 32.573576)
      (xy 46.088039 33.460363)
      (xy 45.787775 34.024464)
      (xy 45.073768 34.516086)
      (xy 44.628874 34.750693)
      (xy 43.138422 35.294821)
      (xy 41.369581 35.616354)
      (xy 39.568662 35.700595)
      (xy 37.981975 35.532850)
      (xy 37.026761 35.204273)
      (xy 35.126461 33.817956)
      (xy 33.730147 31.977186)
      (xy 33.256732 31.012830)
      (xy 32.867653 29.981951)
      (xy 32.650392 28.984135)
      (xy 32.574665 27.778784)
      (xy 32.610188 26.125300)
      (xy 32.618111 25.939312)
      (xy 32.725092 24.235777)
      (xy 32.904379 23.015196)
      (xy 33.208855 22.045296)
      (xy 33.691402 21.093802)
      (xy 33.740511 21.009425)
      (xy 35.134239 19.292055)
      (xy 36.928385 18.094936)
      (xy 39.000225 17.450208)
      (xy 41.227036 17.390009)
    )

    (stroke (width 0.000000) (type solid)) (fill solid) (layer "F.SilkS") (tstamp 3768cd2a-bdf4-4e02-b926-a5064d0a944c))
  (fp_poly
    (pts
      (xy 122.170423 17.720482)
      (xy 123.939897 18.260204)
      (xy 125.091525 18.820949)
      (xy 125.721472 19.469781)
      (xy 125.925900 20.273767)
      (xy 125.926761 20.340172)
      (xy 125.854966 21.150035)
      (xy 125.704316 21.567985)
      (xy 125.290665 21.542007)
      (xy 124.457281 21.241440)
      (xy 123.708823 20.891959)
      (xy 121.549938 20.060242)
      (xy 119.479680 19.757905)
      (xy 117.652703 20.003197)
      (xy 117.293101 20.134832)
      (xy 115.752429 21.147154)
      (xy 114.585495 22.666788)
      (xy 113.850946 24.558670)
      (xy 113.607427 26.687736)
      (xy 113.763627 28.263269)
      (xy 114.320120 30.252458)
      (xy 115.170413 31.687208)
      (xy 116.399826 32.697527)
      (xy 116.819924 32.920276)
      (xy 118.312916 33.488784)
      (xy 119.608962 33.553291)
      (xy 121.018816 33.113948)
      (xy 121.431417 32.922524)
      (xy 122.833140 32.002309)
      (xy 123.738086 30.756342)
      (xy 124.156662 29.627988)
      (xy 124.445830 28.619719)
      (xy 122.001574 28.619719)
      (xy 120.707627 28.605874)
      (xy 119.945317 28.515666)
      (xy 119.530795 28.276087)
      (xy 119.280210 27.814124)
      (xy 119.164574 27.493095)
      (xy 118.897165 26.689063)
      (xy 118.772934 26.242723)
      (xy 118.771831 26.229266)
      (xy 119.105606 26.183098)
      (xy 120.011810 26.161600)
      (xy 121.347759 26.166048)
      (xy 122.796479 26.193213)
      (xy 124.539103 26.242938)
      (xy 125.693269 26.307226)
      (xy 126.385859 26.415519)
      (xy 126.743753 26.597258)
      (xy 126.893831 26.881883)
      (xy 126.942785 27.155304)
      (xy 126.917095 28.963805)
      (xy 126.434323 30.899732)
      (xy 125.645903 32.517326)
      (xy 124.276149 34.008237)
      (xy 122.467641 35.076522)
      (xy 120.386013 35.682496)
      (xy 118.196900 35.786474)
      (xy 116.065937 35.348771)
      (xy 115.254566 35.007022)
      (xy 113.604696 33.809133)
      (xy 112.318565 32.100597)
      (xy 111.437870 30.009688)
      (xy 111.004308 27.664679)
      (xy 111.059576 25.193843)
      (xy 111.453385 23.313411)
      (xy 112.448580 21.101087)
      (xy 113.932812 19.361540)
      (xy 115.822699 18.138285)
      (xy 118.034859 17.474837)
      (xy 120.485910 17.414710)
    )

    (stroke (width 0.000000) (type solid)) (fill solid) (layer "F.SilkS") (tstamp 21abd680-c89a-4b93-848b-af1cb9508acc))
  (fp_poly
    (pts
      (xy 176.576191 17.466382)
      (xy 178.749458 18.045809)
      (xy 179.866099 18.606236)
      (xy 180.671021 19.234404)
      (xy 180.985541 19.982512)
      (xy 181.019719 20.565165)
      (xy 180.984961 21.395424)
      (xy 180.899466 21.811371)
      (xy 180.881011 21.822536)
      (xy 180.513436 21.681950)
      (xy 179.671148 21.310848)
      (xy 178.525953 20.785214)
      (xy 178.354556 20.705174)
      (xy 176.150363 19.928338)
      (xy 174.239271 19.791129)
      (xy 172.635429 20.289977)
      (xy 171.352985 21.421314)
      (xy 170.622950 22.655354)
      (xy 170.160304 24.227525)
      (xy 169.951570 26.151267)
      (xy 170.009818 28.104411)
      (xy 170.336001 29.729011)
      (xy 171.231779 31.441077)
      (xy 172.537207 32.628433)
      (xy 174.151142 33.267387)
      (xy 175.972441 33.334248)
      (xy 177.899961 32.805323)
      (xy 179.528612 31.882246)
      (xy 180.282236 31.383324)
      (xy 180.766478 31.131359)
      (xy 180.806634 31.123944)
      (xy 180.940402 31.441511)
      (xy 181.014483 32.234287)
      (xy 181.019719 32.547659)
      (xy 180.960717 33.448139)
      (xy 180.667305 34.016214)
      (xy 179.964870 34.504892)
      (xy 179.499296 34.750693)
      (xy 178.060615 35.270113)
      (xy 176.303265 35.592977)
      (xy 174.486185 35.700713)
      (xy 172.868317 35.574751)
      (xy 171.897183 35.295890)
      (xy 170.560101 34.429129)
      (xy 169.272042 33.187874)
      (xy 168.337238 31.866062)
      (xy 168.327331 31.846873)
      (xy 167.799806 30.422765)
      (xy 167.405126 28.616763)
      (xy 167.196338 26.758000)
      (xy 167.226489 25.175610)
      (xy 167.238148 25.089022)
      (xy 167.713674 23.123511)
      (xy 168.506870 21.249352)
      (xy 169.505526 19.692043)
      (xy 170.341336 18.852673)
      (xy 172.176972 17.874863)
      (xy 174.320310 17.411083)
    )

    (stroke (width 0.000000) (type solid)) (fill solid) (layer "F.SilkS") (tstamp 489a72af-8c5e-4eda-b3b9-d992dfb136ca))
  (fp_poly
    (pts
      (xy -94.731178 17.543612)
      (xy -92.549306 17.583694)
      (xy -90.835973 17.646795)
      (xy -89.665727 17.729883)
      (xy -89.113116 17.829929)
      (xy -89.078873 17.864035)
      (xy -89.196528 18.423409)
      (xy -89.427765 19.116148)
      (xy -89.626889 19.550840)
      (xy -89.923059 19.820730)
      (xy -90.469177 19.965039)
      (xy -91.418146 20.022987)
      (xy -92.922870 20.033797)
      (xy -93.005230 20.033803)
      (xy -96.233802 20.033803)
      (xy -96.233802 27.725353)
      (xy -96.233802 35.416902)
      (xy -97.307042 35.416902)
      (xy -98.380281 35.416902)
      (xy -98.380281 27.725353)
      (xy -98.380281 20.033803)
      (xy -101.608854 20.033803)
      (xy -103.141884 20.024181)
      (xy -104.112349 19.969166)
      (xy -104.673155 19.829538)
      (xy -104.977203 19.566075)
      (xy -105.177396 19.139556)
      (xy -105.186319 19.116148)
      (xy -105.447023 18.317657)
      (xy -105.535211 17.864035)
      (xy -105.189948 17.759332)
      (xy -104.203858 17.670643)
      (xy -102.651489 17.601000)
      (xy -100.607390 17.553432)
      (xy -98.146107 17.530970)
      (xy -97.307042 17.529578)
    )

    (stroke (width 0.000000) (type solid)) (fill solid) (layer "F.SilkS") (tstamp bfbbbdd0-086a-4158-961b-d9b3efb4b3a7))
  (fp_poly
    (pts
      (xy -77.552831 17.579498)
      (xy -76.601492 17.656992)
      (xy -76.075917 17.837405)
      (xy -75.879554 18.151691)
      (xy -75.915851 18.630806)
      (xy -76.067736 19.228874)
      (xy -76.199264 19.582550)
      (xy -76.455032 19.813857)
      (xy -76.967296 19.948702)
      (xy -77.868309 20.012990)
      (xy -79.290329 20.032629)
      (xy -80.176935 20.033803)
      (xy -84.070422 20.033803)
      (xy -84.070422 22.538029)
      (xy -84.070422 25.042254)
      (xy -80.671831 25.042254)
      (xy -77.273239 25.042254)
      (xy -77.273239 26.115493)
      (xy -77.273239 27.188733)
      (xy -80.671831 27.188733)
      (xy -84.070422 27.188733)
      (xy -84.070422 30.229578)
      (xy -84.070422 33.270423)
      (xy -80.126356 33.270423)
      (xy -78.403063 33.276106)
      (xy -77.259682 33.312474)
      (xy -76.560633 33.408510)
      (xy -76.170337 33.593194)
      (xy -75.953215 33.895507)
      (xy -75.833399 34.188078)
      (xy -75.576493 34.914382)
      (xy -75.484507 35.261318)
      (xy -75.821982 35.314609)
      (xy -76.753355 35.360038)
      (xy -78.157041 35.394195)
      (xy -79.911460 35.413673)
      (xy -81.035827 35.416902)
      (xy -86.587147 35.416902)
      (xy -86.491461 26.562676)
      (xy -86.395774 17.708451)
      (xy -81.119014 17.609451)
      (xy -79.026488 17.573969)
    )

    (stroke (width 0.000000) (type solid)) (fill solid) (layer "F.SilkS") (tstamp d89b8ca9-5221-4fdc-9558-773f53233712))
  (fp_poly
    (pts
      (xy -43.287324 26.450574)
      (xy -43.289597 29.211481)
      (xy -43.300610 31.339172)
      (xy -43.326657 32.915918)
      (xy -43.374028 34.023991)
      (xy -43.449014 34.745662)
      (xy -43.557909 35.163205)
      (xy -43.707004 35.358890)
      (xy -43.902590 35.414990)
      (xy -43.973031 35.416902)
      (xy -44.388951 35.187242)
      (xy -45.085125 34.477824)
      (xy -46.086613 33.257991)
      (xy -47.418479 31.497086)
      (xy -49.105783 29.164453)
      (xy -49.249791 28.962183)
      (xy -53.840845 22.507465)
      (xy -53.938352 28.962183)
      (xy -54.035859 35.416902)
      (xy -55.279901 35.416902)
      (xy -56.523943 35.416902)
      (xy -56.523943 26.640885)
      (xy -56.519590 23.885446)
      (xy -56.502910 21.761913)
      (xy -56.468468 20.186731)
      (xy -56.410833 19.076347)
      (xy -56.324571 18.347207)
      (xy -56.204250 17.915756)
      (xy -56.044436 17.698442)
      (xy -55.938698 17.640289)
      (xy -55.155073 17.624117)
      (xy -54.776022 17.777602)
      (xy -54.395196 18.170702)
      (xy -53.675416 19.052032)
      (xy -52.690760 20.325585)
      (xy -51.515309 21.895355)
      (xy -50.223141 23.665335)
      (xy -50.084507 23.857779)
      (xy -45.970422 29.576063)
      (xy -45.791549 23.642257)
      (xy -45.612676 17.708451)
      (xy -44.450000 17.596348)
      (xy -43.287324 17.484245)
    )

    (stroke (width 0.000000) (type solid)) (fill solid) (layer "F.SilkS") (tstamp 73941d80-6b16-4f72-ac2f-f0d25c128ad5))
  (fp_poly
    (pts
      (xy -17.804926 25.288422)
      (xy -17.708450 33.091550)
      (xy -13.670446 33.192828)
      (xy -11.921788 33.243034)
      (xy -10.754793 33.309592)
      (xy -10.035774 33.423224)
      (xy -9.631045 33.614651)
      (xy -9.406920 33.914595)
      (xy -9.288051 34.199920)
      (xy -9.033190 34.921477)
      (xy -8.943662 35.261318)
      (xy -9.281146 35.314587)
      (xy -10.212582 35.360001)
      (xy -11.616442 35.394158)
      (xy -13.371196 35.413653)
      (xy -14.499960 35.416902)
      (xy -16.766400 35.400932)
      (xy -18.395825 35.348904)
      (xy -19.466089 35.254643)
      (xy -20.055046 35.111972)
      (xy -20.230698 34.962317)
      (xy -20.276154 34.488273)
      (xy -20.309035 33.404911)
      (xy -20.328404 31.818312)
      (xy -20.333325 29.834558)
      (xy -20.322860 27.559729)
      (xy -20.308907 26.108092)
      (xy -20.212676 17.708451)
      (xy -19.057038 17.596873)
      (xy -17.901401 17.485295)
    )

    (stroke (width 0.000000) (type solid)) (fill solid) (layer "F.SilkS") (tstamp 9d10cf42-8c7a-4aab-8ccd-07b2f2a17e79))
  (fp_poly
    (pts
      (xy 22.935892 17.598487)
      (xy 23.347954 17.743260)
      (xy 23.241921 18.103553)
      (xy 22.803258 18.944264)
      (xy 22.096959 20.150978)
      (xy 21.188017 21.609281)
      (xy 20.882930 22.082738)
      (xy 19.918677 23.620662)
      (xy 19.136133 24.970626)
      (xy 18.602154 26.009244)
      (xy 18.383593 26.613129)
      (xy 18.387982 26.687399)
      (xy 18.649427 27.157500)
      (xy 19.227119 28.087332)
      (xy 20.036602 29.343862)
      (xy 20.993421 30.794056)
      (xy 21.027014 30.844399)
      (xy 21.994015 32.296983)
      (xy 22.827149 33.555860)
      (xy 23.439250 34.488821)
      (xy 23.743155 34.963654)
      (xy 23.746765 34.969719)
      (xy 23.721196 35.267265)
      (xy 23.123466 35.401007)
      (xy 22.560857 35.416902)
      (xy 21.921926 35.396751)
      (xy 21.423333 35.267894)
      (xy 20.953456 34.927724)
      (xy 20.400672 34.273636)
      (xy 19.653360 33.203023)
      (xy 18.872842 32.026778)
      (xy 17.969881 30.681984)
      (xy 17.208457 29.591496)
      (xy 16.673752 28.874454)
      (xy 16.456338 28.646899)
      (xy 16.204752 28.934373)
      (xy 15.658275 29.706546)
      (xy 14.900832 30.841135)
      (xy 14.130986 32.035067)
      (xy 13.188077 33.503004)
      (xy 12.515580 34.469210)
      (xy 12.004559 35.038607)
      (xy 11.546081 35.316117)
      (xy 11.031211 35.406661)
      (xy 10.621845 35.414945)
      (xy 9.734560 35.348593)
      (xy 9.467181 35.123199)
      (xy 9.521219 34.969719)
      (xy 9.805281 34.515677)
      (xy 10.398300 33.587780)
      (xy 11.219323 32.312093)
      (xy 12.187399 30.814677)
      (xy 12.405951 30.477447)
      (xy 13.444029 28.896380)
      (xy 14.161548 27.737390)
      (xy 14.552804 26.840759)
      (xy 14.612098 26.046771)
      (xy 14.333725 25.195710)
      (xy 13.711985 24.127859)
      (xy 12.741176 22.683502)
      (xy 12.093524 21.726169)
      (xy 10.992726 20.075061)
      (xy 10.265214 18.926161)
      (xy 9.884306 18.188414)
      (xy 9.823320 17.770771)
      (xy 10.055575 17.582178)
      (xy 10.554389 17.531583)
      (xy 10.863766 17.529578)
      (xy 11.453309 17.564560)
      (xy 11.940171 17.739672)
      (xy 12.437001 18.160166)
      (xy 13.056450 18.931292)
      (xy 13.911170 20.158302)
      (xy 14.309860 20.749296)
      (xy 15.201444 22.054664)
      (xy 15.945753 23.105792)
      (xy 16.454951 23.781062)
      (xy 16.635212 23.969014)
      (xy 16.887262 23.690888)
      (xy 17.446151 22.937587)
      (xy 18.224045 21.830730)
      (xy 18.960564 20.749296)
      (xy 19.959661 19.298333)
      (xy 20.686326 18.354244)
      (xy 21.242067 17.813907)
      (xy 21.728394 17.574198)
      (xy 22.129885 17.529578)
    )

    (stroke (width 0.000000) (type solid)) (fill solid) (layer "F.SilkS") (tstamp cf12dcee-5d62-40a1-9c18-ab3e20b52249))
  (fp_poly
    (pts
      (xy 28.894278 26.562676)
      (xy 28.989965 35.416902)
      (xy 27.725352 35.416902)
      (xy 26.460740 35.416902)
      (xy 26.556427 26.562676)
      (xy 26.652113 17.708451)
      (xy 27.725352 17.708451)
      (xy 28.798592 17.708451)
    )

    (stroke (width 0.000000) (type solid)) (fill solid) (layer "F.SilkS") (tstamp ab3ee896-cc33-4d75-9f4b-df4aa7c5a5fa))
  (fp_poly
    (pts
      (xy 56.409375 17.733417)
      (xy 56.665596 18.125896)
      (xy 57.148740 19.071070)
      (xy 57.811423 20.460814)
      (xy 58.606261 22.187000)
      (xy 59.485870 24.141502)
      (xy 60.402868 26.216194)
      (xy 61.309871 28.302949)
      (xy 62.159495 30.293639)
      (xy 62.904357 32.080139)
      (xy 63.497074 33.554321)
      (xy 63.890261 34.608060)
      (xy 64.036536 35.133227)
      (xy 64.036620 35.138403)
      (xy 63.723808 35.320883)
      (xy 62.951011 35.362610)
      (xy 62.746117 35.349061)
      (xy 61.997931 35.231564)
      (xy 61.502113 34.925763)
      (xy 61.088315 34.261343)
      (xy 60.667023 33.270423)
      (xy 59.878433 31.302817)
      (xy 55.987324 31.302817)
      (xy 52.096216 31.302817)
      (xy 51.307626 33.270423)
      (xy 50.827819 34.380650)
      (xy 50.412834 34.985451)
      (xy 49.892322 35.255136)
      (xy 49.228532 35.349061)
      (xy 48.387386 35.380578)
      (xy 47.953902 35.316988)
      (xy 47.938029 35.292078)
      (xy 48.074347 34.874394)
      (xy 48.452637 33.909176)
      (xy 49.026897 32.503871)
      (xy 49.751130 30.765928)
      (xy 50.579334 28.802796)
      (xy 50.656249 28.622188)
      (xy 53.304226 28.622188)
      (xy 53.636352 28.799641)
      (xy 54.531719 28.924595)
      (xy 55.838813 28.976989)
      (xy 55.987324 28.977465)
      (xy 57.393358 28.931108)
      (xy 58.327944 28.803108)
      (xy 58.670396 28.610078)
      (xy 58.670423 28.608178)
      (xy 58.544619 28.091724)
      (xy 58.216796 27.111028)
      (xy 57.761340 25.860580)
      (xy 57.252635 24.534871)
      (xy 56.765069 23.328394)
      (xy 56.373025 22.435640)
      (xy 56.168512 22.066561)
      (xy 55.956333 22.266885)
      (xy 55.561433 22.973223)
      (xy 55.054993 24.022662)
      (xy 54.508194 25.252288)
      (xy 53.992214 26.499188)
      (xy 53.578236 27.600448)
      (xy 53.337438 28.393154)
      (xy 53.304226 28.622188)
      (xy 50.656249 28.622188)
      (xy 51.465510 26.721922)
      (xy 52.363659 24.630756)
      (xy 53.227781 22.636746)
      (xy 54.011877 20.847340)
      (xy 54.669946 19.369986)
      (xy 55.155988 18.312134)
      (xy 55.424006 17.781232)
      (xy 55.450212 17.744718)
      (xy 56.033616 17.564939)
    )

    (stroke (width 0.000000) (type solid)) (fill solid) (layer "F.SilkS") (tstamp 49bdfe4a-45f3-4f08-8bfd-87d47b2ac76f))
  (fp_poly
    (pts
      (xy 77.647320 17.630850)
      (xy 79.716623 17.778347)
      (xy 81.249901 17.989068)
      (xy 82.425927 18.294700)
      (xy 83.202117 18.615433)
      (xy 84.968480 19.835502)
      (xy 86.279088 21.482494)
      (xy 87.136825 23.434169)
      (xy 87.544576 25.568288)
      (xy 87.505226 27.762611)
      (xy 87.021659 29.894898)
      (xy 86.096760 31.842910)
      (xy 84.733413 33.484407)
      (xy 82.934504 34.697149)
      (xy 82.821379 34.749711)
      (xy 81.893961 35.076272)
      (xy 80.735043 35.280588)
      (xy 79.172024 35.384211)
      (xy 77.541550 35.409045)
      (xy 73.695775 35.416902)
      (xy 73.695775 26.419645)
      (xy 73.695775 19.958043)
      (xy 75.842254 19.958043)
      (xy 75.842254 26.375735)
      (xy 75.856555 28.453153)
      (xy 75.896261 30.281479)
      (xy 75.956575 31.741062)
      (xy 76.032702 32.712248)
      (xy 76.110564 33.069629)
      (xy 76.685743 33.253580)
      (xy 77.731854 33.274483)
      (xy 79.030187 33.159899)
      (xy 80.362037 32.937386)
      (xy 81.508697 32.634505)
      (xy 82.224968 32.299152)
      (xy 83.574148 31.041229)
      (xy 84.388623 29.584412)
      (xy 84.749691 27.752312)
      (xy 84.785916 26.742711)
      (xy 84.602421 24.392889)
      (xy 84.017988 22.612167)
      (xy 82.981695 21.345611)
      (xy 81.442620 20.538287)
      (xy 79.349841 20.135260)
      (xy 78.614789 20.085360)
      (xy 75.842254 19.958043)
      (xy 73.695775 19.958043)
      (xy 73.695775 17.422389)
    )

    (stroke (width 0.000000) (type solid)) (fill solid) (layer "F.SilkS") (tstamp 9dd05a57-84cb-4f4b-843f-e4be3b0855b4))
  (fp_poly
    (pts
      (xy 99.672389 17.620071)
      (xy 100.888641 17.682533)
      (xy 101.578436 17.775904)
      (xy 101.674647 17.818872)
      (xy 101.788147 18.354694)
      (xy 101.622149 19.081182)
      (xy 101.443250 19.496722)
      (xy 101.193864 19.769490)
      (xy 100.738147 19.929539)
      (xy 99.940252 20.006919)
      (xy 98.664334 20.031683)
      (xy 97.315897 20.033803)
      (xy 93.371831 20.033803)
      (xy 93.371831 22.538029)
      (xy 93.371831 25.042254)
      (xy 96.949296 25.042254)
      (xy 100.526761 25.042254)
      (xy 100.526761 26.102539)
      (xy 100.526761 27.162823)
      (xy 97.038733 27.265215)
      (xy 93.550705 27.367606)
      (xy 93.550705 30.229578)
      (xy 93.550705 33.091550)
      (xy 97.536597 33.192340)
      (xy 99.275386 33.244619)
      (xy 100.429042 33.315029)
      (xy 101.127864 33.431325)
      (xy 101.502147 33.621261)
      (xy 101.682189 33.912594)
      (xy 101.735233 34.086707)
      (xy 101.906570 34.825066)
      (xy 101.952862 35.148592)
      (xy 101.617489 35.241864)
      (xy 100.690042 35.321043)
      (xy 99.293897 35.379968)
      (xy 97.552430 35.412478)
      (xy 96.580322 35.416902)
      (xy 94.351790 35.400138)
      (xy 92.759726 35.345570)
      (xy 91.725796 35.246783)
      (xy 91.171663 35.097365)
      (xy 91.028456 34.962317)
      (xy 90.983001 34.488273)
      (xy 90.950120 33.404911)
      (xy 90.930751 31.818312)
      (xy 90.925830 29.834558)
      (xy 90.936295 27.559729)
      (xy 90.950248 26.108092)
      (xy 91.046479 17.708451)
      (xy 96.205719 17.608818)
      (xy 98.065982 17.593754)
    )

    (stroke (width 0.000000) (type solid)) (fill solid) (layer "F.SilkS") (tstamp 07c37ecf-f18b-4930-9e5a-6e837dac15fa))
  (fp_poly
    (pts
      (xy 136.855926 17.723119)
      (xy 137.063446 17.806910)
      (xy 137.290295 18.019502)
      (xy 137.565024 18.420576)
      (xy 137.916187 19.069809)
      (xy 138.372336 20.026883)
      (xy 138.962025 21.351475)
      (xy 139.713806 23.103265)
      (xy 140.656231 25.341933)
      (xy 141.817855 28.127157)
      (xy 143.100451 31.213381)
      (xy 144.846380 35.416902)
      (xy 143.479485 35.416902)
      (xy 142.729790 35.385471)
      (xy 142.247382 35.189024)
      (xy 141.877891 34.674332)
      (xy 141.466943 33.688166)
      (xy 141.305645 33.259154)
      (xy 140.498701 31.101406)
      (xy 136.574589 31.202111)
      (xy 132.650477 31.302817)
      (xy 131.862454 33.270423)
      (xy 131.384739 34.379041)
      (xy 130.972174 34.982949)
      (xy 130.452276 35.252316)
      (xy 129.755718 35.348881)
      (xy 128.905174 35.373362)
      (xy 128.606048 35.201977)
      (xy 128.670982 34.850001)
      (xy 128.869710 34.361957)
      (xy 129.305052 33.311350)
      (xy 129.936521 31.795271)
      (xy 130.723627 29.910812)
      (xy 131.241355 28.673806)
      (xy 133.797183 28.673806)
      (xy 134.126620 28.814820)
      (xy 135.002085 28.921009)
      (xy 136.254313 28.974415)
      (xy 136.659155 28.977465)
      (xy 137.988345 28.963972)
      (xy 138.989217 28.928115)
      (xy 139.492447 28.876828)
      (xy 139.521127 28.860270)
      (xy 139.394267 28.491133)
      (xy 139.053374 27.609911)
      (xy 138.557976 26.365651)
      (xy 137.967602 24.907401)
      (xy 137.341782 23.384207)
      (xy 137.138909 22.895775)
      (xy 136.617248 21.643662)
      (xy 135.207216 25.006904)
      (xy 134.615839 26.445638)
      (xy 134.146519 27.641031)
      (xy 133.858771 28.438311)
      (xy 133.797183 28.673806)
      (xy 131.241355 28.673806)
      (xy 131.625880 27.755062)
      (xy 132.372345 25.974359)
      (xy 133.458724 23.399329)
      (xy 134.315152 21.413457)
      (xy 134.979908 19.942587)
      (xy 135.491270 18.912567)
      (xy 135.887517 18.249241)
      (xy 136.206926 17.878454)
      (xy 136.487776 17.726053)
      (xy 136.639180 17.708451)
    )

    (stroke (width 0.000000) (type solid)) (fill solid) (layer "F.SilkS") (tstamp 6b63d5e4-3fc8-4fd7-8753-aec6b664dc3e))
  (fp_poly
    (pts
      (xy 149.813315 25.489437)
      (xy 149.909729 33.270423)
      (xy 153.975112 33.270423)
      (xy 155.731494 33.277335)
      (xy 156.901551 33.314259)
      (xy 157.614427 33.405478)
      (xy 157.999265 33.575271)
      (xy 158.185212 33.847922)
      (xy 158.256208 34.075353)
      (xy 158.428978 34.817915)
      (xy 158.476806 35.148592)
      (xy 158.141079 35.240485)
      (xy 157.211334 35.318821)
      (xy 155.809003 35.377726)
      (xy 154.055519 35.411324)
      (xy 152.930370 35.416902)
      (xy 147.379050 35.416902)
      (xy 147.474737 26.562676)
      (xy 147.570423 17.708451)
      (xy 148.643662 17.708451)
      (xy 149.716902 17.708451)
    )

    (stroke (width 0.000000) (type solid)) (fill solid) (layer "F.SilkS") (tstamp 92215924-363c-4de6-8fd0-276aa3634a33))
  (fp_poly
    (pts
      (xy 162.506338 17.596348)
      (xy 163.669014 17.708451)
      (xy 163.669014 26.473240)
      (xy 163.669014 35.238029)
      (xy 162.506338 35.350131)
      (xy 161.343662 35.462234)
      (xy 161.343662 26.473240)
      (xy 161.343662 17.484245)
    )

    (stroke (width 0.000000) (type solid)) (fill solid) (layer "F.SilkS") (tstamp 021cac4c-5171-4cc3-866e-0ca0cb3623c6))
  (fp_poly
    (pts
      (xy 186.743662 26.450574)
      (xy 186.743662 35.416902)
      (xy 185.485300 35.416902)
      (xy 184.226938 35.416902)
      (xy 184.322624 26.562676)
      (xy 184.418310 17.708451)
      (xy 185.580986 17.596348)
      (xy 186.743662 17.484245)
    )

    (stroke (width 0.000000) (type solid)) (fill solid) (layer "F.SilkS") (tstamp 23247757-d9ea-48b3-b09d-42844e5ac70d))
  (fp_poly
    (pts
      (xy 197.574617 17.599524)
      (xy 197.851978 17.750619)
      (xy 198.196358 18.172307)
      (xy 198.640913 18.931021)
      (xy 199.218796 20.093194)
      (xy 199.963164 21.725260)
      (xy 200.907171 23.893654)
      (xy 202.003204 26.473240)
      (xy 202.985368 28.804900)
      (xy 203.869557 30.909806)
      (xy 204.619548 32.701253)
      (xy 205.199117 34.092531)
      (xy 205.572043 34.996933)
      (xy 205.702123 35.327465)
      (xy 205.387057 35.384962)
      (xy 204.603184 35.415433)
      (xy 204.360855 35.416902)
      (xy 203.621660 35.382910)
      (xy 203.140608 35.179011)
      (xy 202.762732 34.652318)
      (xy 202.333068 33.649947)
      (xy 202.185169 33.270423)
      (xy 201.352853 31.123944)
      (xy 197.476057 31.123944)
      (xy 193.599260 31.123944)
      (xy 192.766945 33.270423)
      (xy 192.295030 34.431000)
      (xy 191.917462 35.073413)
      (xy 191.480717 35.350682)
      (xy 190.831270 35.415827)
      (xy 190.613399 35.416902)
      (xy 189.292168 35.416902)
      (xy 190.830960 31.750000)
      (xy 192.128178 28.659641)
      (xy 194.721451 28.659641)
      (xy 194.945714 28.846562)
      (xy 195.569063 28.941783)
      (xy 196.719582 28.974917)
      (xy 197.476057 28.977465)
      (xy 198.917563 28.963229)
      (xy 199.771902 28.900777)
      (xy 200.167158 28.760497)
      (xy 200.231416 28.512777)
      (xy 200.183924 28.351409)
      (xy 199.541621 26.647571)
      (xy 198.902436 25.020223)
      (xy 198.320926 23.600852)
      (xy 197.851648 22.520949)
      (xy 197.549159 21.912002)
      (xy 197.476057 21.825121)
      (xy 197.281392 22.138478)
      (xy 196.891682 22.990890)
      (xy 196.361485 24.250867)
      (xy 195.745359 25.786920)
      (xy 195.097860 27.467559)
      (xy 194.768189 28.351409)
      (xy 194.721451 28.659641)
      (xy 192.128178 28.659641)
      (xy 192.273574 28.313264)
      (xy 193.466476 25.478729)
      (xy 194.437050 23.188938)
      (xy 195.212676 21.386433)
      (xy 195.820738 20.013757)
      (xy 196.288618 19.013453)
      (xy 196.643698 18.328063)
      (xy 196.913360 17.900131)
      (xy 197.124987 17.672198)
      (xy 197.305961 17.586807)
      (xy 197.483664 17.586502)
    )

    (stroke (width 0.000000) (type solid)) (fill solid) (layer "F.SilkS") (tstamp c3d18089-ab1c-4848-bc79-5d51b5eb6265))
  (fp_poly
    (pts
      (xy 3.938615 11.984507)
      (xy 2.058744 14.067281)
      (xy 1.102285 15.102352)
      (xy 0.476785 15.675909)
      (xy 0.047117 15.869291)
      (xy -0.321850 15.763840)
      (xy -0.526880 15.623663)
      (xy -1.000859 15.140530)
      (xy -0.944819 14.591136)
      (xy -0.779067 14.256383)
      (xy -0.007673 12.960609)
      (xy 0.678945 12.212982)
      (xy 1.445717 11.891144)
      (xy 2.436118 11.871090)
    )

    (stroke (width 0.000000) (type solid)) (fill solid) (layer "F.SilkS") (tstamp 81f1d52f-f4c5-493e-8024-007c39abe87b))
  (fp_poly
    (pts
      (xy -72.921730 -8.775816)
      (xy -72.180985 -8.617291)
      (xy -70.668490 -7.800722)
      (xy -69.244112 -6.461494)
      (xy -68.094127 -4.785675)
      (xy -67.851832 -4.292957)
      (xy -67.267200 -2.314093)
      (xy -67.085493 -0.046935)
      (xy -67.280323 2.301686)
      (xy -67.825301 4.524937)
      (xy -68.694037 6.415986)
      (xy -69.327044 7.269364)
      (xy -70.791949 8.402993)
      (xy -72.678917 9.154436)
      (xy -74.778160 9.477211)
      (xy -76.879891 9.324834)
      (xy -77.677184 9.119502)
      (xy -79.543967 8.162484)
      (xy -81.048432 6.649932)
      (xy -82.145139 4.667809)
      (xy -82.788652 2.302077)
      (xy -82.895248 0.342455)
      (xy -80.356504 0.342455)
      (xy -80.169331 2.429470)
      (xy -79.569217 4.291471)
      (xy -79.220501 4.910834)
      (xy -78.013964 6.145014)
      (xy -76.442556 6.894578)
      (xy -74.705024 7.115666)
      (xy -73.000114 6.764419)
      (xy -72.333425 6.430709)
      (xy -71.196731 5.349757)
      (xy -70.359955 3.778953)
      (xy -69.851911 1.890590)
      (xy -69.701412 -0.143041)
      (xy -69.937272 -2.149649)
      (xy -70.588304 -3.956943)
      (xy -70.594311 -3.968332)
      (xy -71.715538 -5.421330)
      (xy -73.168084 -6.341516)
      (xy -74.801076 -6.706388)
      (xy -76.463641 -6.493443)
      (xy -78.004907 -5.680180)
      (xy -78.575525 -5.158693)
      (xy -79.546086 -3.662625)
      (xy -80.144251 -1.758576)
      (xy -80.356504 0.342455)
      (xy -82.895248 0.342455)
      (xy -82.933530 -0.361302)
      (xy -82.909575 -0.779374)
      (xy -82.450514 -3.420871)
      (xy -81.502271 -5.578970)
      (xy -80.091517 -7.223746)
      (xy -78.244926 -8.325278)
      (xy -75.989169 -8.853642)
      (xy -75.691407 -8.877162)
      (xy -74.259277 -8.890908)
    )

    (stroke (width 0.000000) (type solid)) (fill solid) (layer "F.SilkS") (tstamp 47961c5d-b2f6-44e8-aa82-bb94e335ab3e))
  (fp_poly
    (pts
      (xy 47.049876 -8.835219)
      (xy 48.941048 -8.498235)
      (xy 50.282207 -7.998811)
      (xy 51.188762 -7.449803)
      (xy 51.625275 -6.860044)
      (xy 51.792512 -5.939896)
      (xy 51.803205 -5.804516)
      (xy 51.912043 -4.340758)
      (xy 49.847625 -5.458895)
      (xy 47.653742 -6.358851)
      (xy 45.687810 -6.597151)
      (xy 43.998809 -6.204887)
      (xy 42.635715 -5.213149)
      (xy 41.647506 -3.653028)
      (xy 41.083159 -1.555616)
      (xy 40.966495 0.178874)
      (xy 41.190810 2.583786)
      (xy 41.880273 4.482129)
      (xy 43.059663 5.931255)
      (xy 43.645071 6.378511)
      (xy 44.608425 6.910632)
      (xy 45.561680 7.087895)
      (xy 46.633131 7.021803)
      (xy 48.056097 6.697959)
      (xy 49.513084 6.129718)
      (xy 49.916553 5.915332)
      (xy 50.844465 5.393524)
      (xy 51.499615 5.065683)
      (xy 51.668634 5.008451)
      (xy 51.798466 5.325496)
      (xy 51.868997 6.114596)
      (xy 51.873240 6.395383)
      (xy 51.825182 7.233508)
      (xy 51.567380 7.754650)
      (xy 50.929392 8.170876)
      (xy 50.173944 8.509680)
      (xy 47.649590 9.297988)
      (xy 45.292612 9.446255)
      (xy 43.690469 9.137087)
      (xy 41.737641 8.141126)
      (xy 40.094984 6.527222)
      (xy 39.229913 5.187324)
      (xy 38.856167 4.373042)
      (xy 38.623302 3.483093)
      (xy 38.501064 2.321245)
      (xy 38.459200 0.691270)
      (xy 38.457747 0.178874)
      (xy 38.483488 -1.596145)
      (xy 38.581425 -2.855772)
      (xy 38.782629 -3.798927)
      (xy 39.118169 -4.624529)
      (xy 39.246989 -4.874012)
      (xy 40.592654 -6.728562)
      (xy 42.327598 -8.078442)
      (xy 43.495020 -8.595427)
      (xy 45.125189 -8.877228)
    )

    (stroke (width 0.000000) (type solid)) (fill solid) (layer "F.SilkS") (tstamp 80ef3a59-682a-445a-8b9d-8f83d9b259ac))
  (fp_poly
    (pts
      (xy 71.702989 -8.620694)
      (xy 73.719313 -7.720987)
      (xy 75.316863 -6.275695)
      (xy 76.461637 -4.323831)
      (xy 77.119634 -1.904407)
      (xy 77.273240 0.210432)
      (xy 77.001024 2.865584)
      (xy 76.215616 5.174250)
      (xy 74.963875 7.061013)
      (xy 73.292657 8.450457)
      (xy 71.723934 9.141711)
      (xy 69.986024 9.551553)
      (xy 68.542280 9.584672)
      (xy 67.079541 9.242606)
      (xy 66.857476 9.165601)
      (xy 64.878296 8.184978)
      (xy 63.386800 6.775655)
      (xy 62.395188 5.154819)
      (xy 61.876017 3.966707)
      (xy 61.580409 2.866357)
      (xy 61.451596 1.564869)
      (xy 61.430355 0.244437)
      (xy 61.465612 -0.343093)
      (xy 64.109518 -0.343093)
      (xy 64.190259 2.226144)
      (xy 64.757599 4.282870)
      (xy 65.808935 5.819992)
      (xy 66.605945 6.449810)
      (xy 68.030001 6.994170)
      (xy 69.664174 7.097179)
      (xy 71.237728 6.777170)
      (xy 72.479928 6.052475)
      (xy 72.480404 6.052030)
      (xy 73.533337 4.857828)
      (xy 74.182215 3.530637)
      (xy 74.501900 1.866470)
      (xy 74.570172 0.357747)
      (xy 74.509736 -1.420589)
      (xy 74.269209 -2.745113)
      (xy 73.874648 -3.733251)
      (xy 72.722428 -5.352292)
      (xy 71.269690 -6.354365)
      (xy 69.598580 -6.710022)
      (xy 67.791246 -6.389814)
      (xy 67.182131 -6.132358)
      (xy 65.862266 -5.292330)
      (xy 64.961138 -4.185836)
      (xy 64.406973 -2.677641)
      (xy 64.127998 -0.632514)
      (xy 64.109518 -0.343093)
      (xy 61.465612 -0.343093)
      (xy 61.573613 -2.142819)
      (xy 62.034729 -4.044894)
      (xy 62.875292 -5.644631)
      (xy 63.786441 -6.750404)
      (xy 65.268981 -7.989495)
      (xy 66.936273 -8.690713)
      (xy 68.989408 -8.933735)
      (xy 69.301890 -8.935805)
    )

    (stroke (width 0.000000) (type solid)) (fill solid) (layer "F.SilkS") (tstamp 5dc7ab9a-8056-48bf-90a2-7af68988b24c))
  (fp_poly
    (pts
      (xy -101.979480 -8.556688)
      (xy -101.647113 -8.413829)
      (xy -101.296159 -8.074574)
      (xy -100.873072 -7.456157)
      (xy -100.324308 -6.475815)
      (xy -99.596322 -5.050782)
      (xy -98.635570 -3.098294)
      (xy -98.144781 -2.090815)
      (xy -94.984684 4.404284)
      (xy -91.842307 -2.090815)
      (xy -90.773158 -4.291719)
      (xy -89.958564 -5.929856)
      (xy -89.344838 -7.088153)
      (xy -88.878292 -7.849536)
      (xy -88.505239 -8.296930)
      (xy -88.171992 -8.513260)
      (xy -87.824864 -8.581452)
      (xy -87.637289 -8.585915)
      (xy -86.574648 -8.585915)
      (xy -86.574648 0.178874)
      (xy -86.574648 8.943662)
      (xy -87.639237 8.943662)
      (xy -88.703827 8.943662)
      (xy -88.801913 2.951409)
      (xy -88.900000 -3.040845)
      (xy -91.727111 2.772536)
      (xy -92.652087 4.631433)
      (xy -93.494685 6.244264)
      (xy -94.198194 7.508799)
      (xy -94.705906 8.322808)
      (xy -94.951917 8.585916)
      (xy -95.232004 8.281290)
      (xy -95.768058 7.434894)
      (xy -96.502212 6.147946)
      (xy -97.376600 4.521668)
      (xy -98.275423 2.772536)
      (xy -101.201232 -3.040845)
      (xy -101.221743 2.951409)
      (xy -101.242253 8.943662)
      (xy -102.315493 8.943662)
      (xy -103.388732 8.943662)
      (xy -103.388732 0.178874)
      (xy -103.388732 -8.585915)
      (xy -102.346806 -8.585915)
    )

    (stroke (width 0.000000) (type solid)) (fill solid) (layer "F.SilkS") (tstamp 6e6e0ecb-4610-4f84-a212-bf8e6a6ed93a))
  (fp_poly
    (pts
      (xy -57.584096 -8.506710)
      (xy -55.707733 -8.313738)
      (xy -54.229997 -7.895500)
      (xy -53.000969 -7.216940)
      (xy -52.384085 -6.726564)
      (xy -51.002176 -5.254400)
      (xy -50.123275 -3.629490)
      (xy -49.674612 -1.672847)
      (xy -49.576529 0.178874)
      (xy -49.803970 2.812631)
      (xy -50.514242 4.961022)
      (xy -51.738053 6.693224)
      (xy -52.911569 7.691550)
      (xy -53.569521 8.133040)
      (xy -54.169319 8.437366)
      (xy -54.866000 8.634545)
      (xy -55.814601 8.754596)
      (xy -57.170158 8.827538)
      (xy -59.063846 8.882783)
      (xy -63.691723 9.000777)
      (xy -63.595861 0.296868)
      (xy -63.520533 -6.542709)
      (xy -61.174648 -6.542709)
      (xy -61.174648 0.127237)
      (xy -61.174648 6.797184)
      (xy -58.754277 6.797184)
      (xy -56.775556 6.664140)
      (xy -55.317516 6.247285)
      (xy -55.087376 6.133885)
      (xy -53.671819 5.019484)
      (xy -52.744557 3.427111)
      (xy -52.290800 1.325681)
      (xy -52.236871 0.142342)
      (xy -52.283655 -1.376737)
      (xy -52.468179 -2.434695)
      (xy -52.843962 -3.280930)
      (xy -53.035915 -3.581102)
      (xy -54.004032 -4.798701)
      (xy -55.049867 -5.591376)
      (xy -56.375891 -6.062525)
      (xy -58.184575 -6.315547)
      (xy -58.428562 -6.335023)
      (xy -61.174648 -6.542709)
      (xy -63.520533 -6.542709)
      (xy -63.500000 -8.407042)
      (xy -60.009006 -8.509469)
    )

    (stroke (width 0.000000) (type solid)) (fill solid) (layer "F.SilkS") (tstamp 7277e3a9-2bb2-46d5-9a3e-0f4f50662019))
  (fp_poly
    (pts
      (xy -35.830833 -8.509968)
      (xy -35.159505 -8.469300)
      (xy -35.059155 -8.439649)
      (xy -35.172815 -8.019182)
      (xy -35.408047 -7.357092)
      (xy -35.584722 -6.956640)
      (xy -35.840953 -6.693830)
      (xy -36.312321 -6.539679)
      (xy -37.134403 -6.465207)
      (xy -38.442780 -6.441433)
      (xy -39.701004 -6.439436)
      (xy -43.645070 -6.439436)
      (xy -43.645070 -3.948166)
      (xy -43.645070 -1.456895)
      (xy -40.157042 -1.354504)
      (xy -36.669014 -1.252112)
      (xy -36.556911 -0.089436)
      (xy -36.444808 1.073240)
      (xy -40.044939 1.073240)
      (xy -43.645070 1.073240)
      (xy -43.645070 3.935212)
      (xy -43.645070 6.797184)
      (xy -39.701004 6.797184)
      (xy -37.977711 6.802866)
      (xy -36.834330 6.839235)
      (xy -36.135281 6.935270)
      (xy -35.744985 7.119954)
      (xy -35.527863 7.422268)
      (xy -35.408047 7.714839)
      (xy -35.151141 8.441143)
      (xy -35.059155 8.788078)
      (xy -35.396631 8.841370)
      (xy -36.328004 8.886797)
      (xy -37.731695 8.920954)
      (xy -39.486121 8.940433)
      (xy -40.610585 8.943662)
      (xy -46.162016 8.943662)
      (xy -46.066219 0.268310)
      (xy -45.970422 -8.407042)
      (xy -40.514788 -8.505796)
      (xy -38.631066 -8.529702)
      (xy -37.028884 -8.530597)
    )

    (stroke (width 0.000000) (type solid)) (fill solid) (layer "F.SilkS") (tstamp aff1eb8d-ad2c-48fb-b080-5523d8a088d8))
  (fp_poly
    (pts
      (xy -28.351408 -8.578058)
      (xy -25.801186 -8.453314)
      (xy -23.857615 -8.075464)
      (xy -22.449232 -7.419641)
      (xy -21.504575 -6.460976)
      (xy -21.309640 -6.127568)
      (xy -20.887479 -4.774347)
      (xy -20.776024 -3.174315)
      (xy -20.982459 -1.680455)
      (xy -21.206964 -1.083977)
      (xy -21.930001 -0.159969)
      (xy -23.005423 0.688450)
      (xy -24.158468 1.274988)
      (xy -24.916285 1.430986)
      (xy -25.563451 1.515316)
      (xy -25.757746 1.663513)
      (xy -25.528174 1.997903)
      (xy -24.899311 2.750821)
      (xy -23.960939 3.818547)
      (xy -22.802838 5.097365)
      (xy -22.506157 5.419851)
      (xy -19.254568 8.943662)
      (xy -20.868869 8.943662)
      (xy -21.542934 8.925415)
      (xy -22.091942 8.813468)
      (xy -22.631990 8.522011)
      (xy -23.279173 7.965236)
      (xy -24.149591 7.057332)
      (xy -25.359338 5.712492)
      (xy -25.588052 5.455634)
      (xy -26.772083 4.143096)
      (xy -27.799385 3.037166)
      (xy -28.570563 2.242497)
      (xy -28.986223 1.863742)
      (xy -29.014072 1.848357)
      (xy -29.147914 2.128870)
      (xy -29.254429 2.980526)
      (xy -29.320341 4.259116)
      (xy -29.335211 5.336385)
      (xy -29.335211 8.943662)
      (xy -30.587324 8.943662)
      (xy -31.839436 8.943662)
      (xy -31.839436 0.178874)
      (xy -31.839436 -6.439436)
      (xy -29.335211 -6.439436)
      (xy -29.335211 -3.355593)
      (xy -29.335211 -0.271750)
      (xy -27.193632 -0.426658)
      (xy -25.726442 -0.619718)
      (xy -24.725895 -0.994182)
      (xy -24.152787 -1.426382)
      (xy -23.419773 -2.566794)
      (xy -23.270288 -3.918358)
      (xy -23.603716 -4.994340)
      (xy -24.332418 -5.678485)
      (xy -25.591067 -6.174587)
      (xy -27.205625 -6.422406)
      (xy -27.778736 -6.439436)
      (xy -29.335211 -6.439436)
      (xy -31.839436 -6.439436)
      (xy -31.839436 -8.585915)
    )

    (stroke (width 0.000000) (type solid)) (fill solid) (layer "F.SilkS") (tstamp d9b9ffd4-54fe-4a2d-9d04-5c0b281b12d4))
  (fp_poly
    (pts
      (xy -3.219718 0.178874)
      (xy -3.219718 8.943662)
      (xy -4.053663 8.943662)
      (xy -4.409654 8.839349)
      (xy -4.876770 8.483649)
      (xy -5.509000 7.812425)
      (xy -6.360337 6.761541)
      (xy -7.484769 5.266858)
      (xy -8.936289 3.264239)
      (xy -9.509297 2.462712)
      (xy -14.130986 -4.018239)
      (xy -14.228492 2.462712)
      (xy -14.325999 8.943662)
      (xy -15.570042 8.943662)
      (xy -16.814084 8.943662)
      (xy -16.814084 0.178874)
      (xy -16.814084 -8.585915)
      (xy -15.651408 -8.571298)
      (xy -15.238781 -8.534088)
      (xy -14.843904 -8.384042)
      (xy -14.400259 -8.046803)
      (xy -13.841327 -7.448013)
      (xy -13.100593 -6.513314)
      (xy -12.111538 -5.168347)
      (xy -10.807644 -3.338757)
      (xy -10.195774 -2.472628)
      (xy -5.902817 3.611424)
      (xy -5.804932 -2.487246)
      (xy -5.707048 -8.585915)
      (xy -4.463383 -8.585915)
      (xy -3.219718 -8.585915)
    )

    (stroke (width 0.000000) (type solid)) (fill solid) (layer "F.SilkS") (tstamp 384e9031-3641-4007-a43f-f0e8f9352f02))
  (fp_poly
    (pts
      (xy 3.577465 0.178874)
      (xy 3.577465 8.943662)
      (xy 2.325352 8.943662)
      (xy 1.073240 8.943662)
      (xy 1.073240 0.178874)
      (xy 1.073240 -8.585915)
      (xy 2.325352 -8.585915)
      (xy 3.577465 -8.585915)
    )

    (stroke (width 0.000000) (type solid)) (fill solid) (layer "F.SilkS") (tstamp 6fc10fb5-1cd9-4918-ad2a-9d1fa1a15589))
  (fp_poly
    (pts
      (xy 15.630288 -8.566962)
      (xy 17.524394 -8.512313)
      (xy 18.858169 -8.425284)
      (xy 19.570843 -8.309189)
      (xy 19.676057 -8.234619)
      (xy 19.491026 -7.846390)
      (xy 18.971365 -6.944203)
      (xy 18.170217 -5.615398)
      (xy 17.140727 -3.947314)
      (xy 15.936038 -2.027293)
      (xy 15.050380 -0.632506)
      (xy 10.424703 6.618310)
      (xy 14.705714 6.718863)
      (xy 16.514551 6.766769)
      (xy 17.737234 6.828477)
      (xy 18.502958 6.932114)
      (xy 18.940918 7.105809)
      (xy 19.180311 7.377690)
      (xy 19.331391 7.725955)
      (xy 19.586378 8.447803)
      (xy 19.676057 8.788078)
      (xy 19.337130 8.837780)
      (xy 18.395609 8.880912)
      (xy 16.964381 8.914748)
      (xy 15.156336 8.936559)
      (xy 13.236620 8.943662)
      (xy 10.895337 8.935247)
      (xy 9.180203 8.905260)
      (xy 8.002020 8.846589)
      (xy 7.271591 8.752123)
      (xy 6.899716 8.614749)
      (xy 6.797183 8.430237)
      (xy 6.983451 7.993409)
      (xy 7.505804 7.048755)
      (xy 8.309566 5.687811)
      (xy 9.340060 4.002115)
      (xy 10.542611 2.083203)
      (xy 11.269014 0.943668)
      (xy 12.539641 -1.046162)
      (xy 13.669932 -2.832466)
      (xy 14.605782 -4.328397)
      (xy 15.293087 -5.447105)
      (xy 15.677741 -6.101740)
      (xy 15.740845 -6.234456)
      (xy 15.406633 -6.315078)
      (xy 14.498042 -6.380782)
      (xy 13.156144 -6.424554)
      (xy 11.617906 -6.439436)
      (xy 9.849474 -6.444470)
      (xy 8.664454 -6.477642)
      (xy 7.930766 -6.566056)
      (xy 7.516330 -6.736815)
      (xy 7.289066 -7.017023)
      (xy 7.146075 -7.357092)
      (xy 6.889170 -8.083395)
      (xy 6.797183 -8.430331)
      (xy 7.136110 -8.480032)
      (xy 8.077631 -8.523165)
      (xy 9.508859 -8.557000)
      (xy 11.316904 -8.578812)
      (xy 13.236620 -8.585915)
    )

    (stroke (width 0.000000) (type solid)) (fill solid) (layer "F.SilkS") (tstamp 5852f135-4d27-4baa-8967-d96c529f6323))
  (fp_poly
    (pts
      (xy 29.351116 -8.494539)
      (xy 29.673951 -8.318840)
      (xy 30.018443 -7.879188)
      (xy 30.442801 -7.079029)
      (xy 31.005234 -5.821812)
      (xy 31.763953 -4.010984)
      (xy 31.903397 -3.673259)
      (xy 32.801512 -1.500821)
      (xy 33.775404 0.846748)
      (xy 34.711993 3.097312)
      (xy 35.498192 4.978734)
      (xy 35.548158 5.097888)
      (xy 37.161354 8.943662)
      (xy 35.801111 8.943662)
      (xy 34.977500 8.896570)
      (xy 34.479043 8.638917)
      (xy 34.100724 7.996139)
      (xy 33.805371 7.244367)
      (xy 33.369510 6.124697)
      (xy 32.959775 5.384956)
      (xy 32.424178 4.946413)
      (xy 31.610731 4.730335)
      (xy 30.367446 4.657992)
      (xy 28.798406 4.650705)
      (xy 25.129491 4.650705)
      (xy 24.326761 6.797184)
      (xy 23.871710 7.958728)
      (xy 23.505103 8.600946)
      (xy 23.072761 8.877612)
      (xy 22.420503 8.942501)
      (xy 22.174629 8.943662)
      (xy 20.825226 8.943662)
      (xy 23.717249 2.057043)
      (xy 26.220266 2.057043)
      (xy 26.313481 2.288519)
      (xy 26.882897 2.429527)
      (xy 28.020520 2.494991)
      (xy 28.977465 2.504226)
      (xy 30.486992 2.475757)
      (xy 31.374922 2.380403)
      (xy 31.733262 2.203240)
      (xy 31.734664 2.057043)
      (xy 31.527434 1.537540)
      (xy 31.129562 0.533802)
      (xy 30.612899 -0.772800)
      (xy 30.388304 -1.341549)
      (xy 29.844561 -2.653687)
      (xy 29.375966 -3.666022)
      (xy 29.054695 -4.227564)
      (xy 28.977465 -4.292957)
      (xy 28.745949 -3.983290)
      (xy 28.334658 -3.154946)
      (xy 27.815771 -1.958915)
      (xy 27.566626 -1.341549)
      (xy 27.022492 0.035604)
      (xy 26.568312 1.182685)
      (xy 26.275936 1.918324)
      (xy 26.220266 2.057043)
      (xy 23.717249 2.057043)
      (xy 24.468424 0.268310)
      (xy 25.581764 -2.370233)
      (xy 26.463243 -4.420219)
      (xy 27.151032 -5.955669)
      (xy 27.683306 -7.050604)
      (xy 28.098237 -7.779046)
      (xy 28.433999 -8.215016)
      (xy 28.728764 -8.432536)
      (xy 28.991727 -8.502837)
    )

    (stroke (width 0.000000) (type solid)) (fill solid) (layer "F.SilkS") (tstamp 24c2f6bf-86cd-4d05-a6ab-edbca8951299))
  (fp_poly
    (pts
      (xy 57.954930 0.178874)
      (xy 57.954930 8.943662)
      (xy 56.702817 8.943662)
      (xy 55.450705 8.943662)
      (xy 55.450705 0.178874)
      (xy 55.450705 -8.585915)
      (xy 56.702817 -8.585915)
      (xy 57.954930 -8.585915)
    )

    (stroke (width 0.000000) (type solid)) (fill solid) (layer "F.SilkS") (tstamp 339f3ba6-de20-47b6-bd25-fb494dfe2164))
  (fp_poly
    (pts
      (xy 82.244935 -8.530894)
      (xy 82.655810 -8.316957)
      (xy 83.158603 -7.870789)
      (xy 83.818522 -7.119078)
      (xy 84.700773 -5.988512)
      (xy 85.870562 -4.405776)
      (xy 87.137533 -2.653137)
      (xy 91.404226 3.279642)
      (xy 91.502312 -2.653137)
      (xy 91.600399 -8.585915)
      (xy 92.843862 -8.585915)
      (xy 94.087324 -8.585915)
      (xy 94.087324 0.178874)
      (xy 94.087324 8.943662)
      (xy 93.282395 8.928243)
      (xy 92.914408 8.796854)
      (xy 92.407700 8.373815)
      (xy 91.711155 7.597676)
      (xy 90.773659 6.406988)
      (xy 89.544094 4.740302)
      (xy 88.005634 2.584696)
      (xy 83.533803 -3.743432)
      (xy 83.436112 2.600115)
      (xy 83.338420 8.943662)
      (xy 82.094562 8.943662)
      (xy 80.850705 8.943662)
      (xy 80.850705 0.178874)
      (xy 80.850705 -8.585915)
      (xy 81.860773 -8.585915)
    )

    (stroke (width 0.000000) (type solid)) (fill solid) (layer "F.SilkS") (tstamp 1cef0d27-51e6-4920-a039-2fad88f0c179))
  (fp_poly
    (pts
      (xy 72.472297 -14.615156)
      (xy 72.951217 -14.484592)
      (xy 72.980282 -14.437865)
      (xy 72.760517 -14.046764)
      (xy 72.199834 -13.316290)
      (xy 71.446154 -12.416383)
      (xy 70.647396 -11.516980)
      (xy 69.951478 -10.788021)
      (xy 69.506322 -10.399442)
      (xy 69.443531 -10.374647)
      (xy 68.972243 -10.566035)
      (xy 68.581469 -10.821831)
      (xy 68.275801 -11.130332)
      (xy 68.264951 -11.523002)
      (xy 68.591995 -12.180944)
      (xy 69.092048 -12.968309)
      (xy 69.782092 -13.948861)
      (xy 70.344096 -14.457404)
      (xy 71.000940 -14.645458)
      (xy 71.591632 -14.667605)
    )

    (stroke (width 0.000000) (type solid)) (fill solid) (layer "F.SilkS") (tstamp 983a4ff4-0760-49fa-86f9-177d5142c0c4))
  (fp_poly
    (pts
      (xy -30.585800 -35.077718)
      (xy -28.261971 -34.248930)
      (xy -27.278218 -33.698491)
      (xy -26.777613 -33.172012)
      (xy -26.574687 -32.438731)
      (xy -26.541080 -32.107746)
      (xy -26.508333 -31.246769)
      (xy -26.565980 -30.788950)
      (xy -26.594189 -30.766197)
      (xy -26.971311 -30.920154)
      (xy -27.794889 -31.322217)
      (xy -28.798591 -31.839436)
      (xy -30.969894 -32.722767)
      (xy -32.880635 -32.945926)
      (xy -34.546218 -32.508871)
      (xy -35.561484 -31.821554)
      (xy -36.662536 -30.550188)
      (xy -37.328939 -28.983622)
      (xy -37.614775 -26.973020)
      (xy -37.634929 -26.115493)
      (xy -37.472370 -23.909435)
      (xy -36.948636 -22.200780)
      (xy -36.009643 -20.840687)
      (xy -35.561484 -20.409431)
      (xy -34.056226 -19.516379)
      (xy -32.316447 -19.283568)
      (xy -30.326746 -19.710957)
      (xy -28.798591 -20.391549)
      (xy -27.725399 -20.943695)
      (xy -26.927519 -21.331058)
      (xy -26.594189 -21.464788)
      (xy -26.514835 -21.150118)
      (xy -26.523696 -20.369784)
      (xy -26.541080 -20.127791)
      (xy -26.698111 -19.253490)
      (xy -27.111684 -18.648830)
      (xy -27.967223 -18.069467)
      (xy -28.203067 -17.937666)
      (xy -30.053806 -17.221401)
      (xy -32.113385 -16.907632)
      (xy -34.115493 -17.013610)
      (xy -35.598843 -17.458565)
      (xy -37.278323 -18.578997)
      (xy -38.723863 -20.153352)
      (xy -39.705265 -21.926675)
      (xy -39.753593 -22.060161)
      (xy -40.103424 -23.677081)
      (xy -40.233575 -25.675270)
      (xy -40.149501 -27.756848)
      (xy -39.856656 -29.623934)
      (xy -39.599520 -30.475143)
      (xy -38.487277 -32.457673)
      (xy -36.930468 -33.942254)
      (xy -35.028410 -34.895826)
      (xy -32.880415 -35.285334)
    )

    (stroke (width 0.000000) (type solid)) (fill solid) (layer "F.SilkS") (tstamp 82537d9d-2092-47be-81b5-6f20ca611a94))
  (fp_poly
    (pts
      (xy -97.068660 -34.823191)
      (xy -96.777229 -34.602055)
      (xy -96.436513 -34.142073)
      (xy -96.007445 -33.368444)
      (xy -95.450954 -32.206369)
      (xy -94.727971 -30.581049)
      (xy -93.799428 -28.417682)
      (xy -93.052191 -26.652112)
      (xy -92.085630 -24.358927)
      (xy -91.203251 -22.261181)
      (xy -90.445906 -20.456342)
      (xy -89.854451 -19.041880)
      (xy -89.469739 -18.115266)
      (xy -89.340995 -17.797887)
      (xy -89.292037 -17.389409)
      (xy -89.668100 -17.208836)
      (xy -90.477468 -17.171831)
      (xy -91.231817 -17.202671)
      (xy -91.716296 -17.397306)
      (xy -92.085872 -17.908900)
      (xy -92.495510 -18.890621)
      (xy -92.660552 -19.329579)
      (xy -93.467496 -21.487327)
      (xy -97.386882 -21.386621)
      (xy -101.306269 -21.285915)
      (xy -102.134918 -19.318309)
      (xy -102.638166 -18.209085)
      (xy -103.068642 -17.603427)
      (xy -103.598101 -17.332490)
      (xy -104.249389 -17.239672)
      (xy -105.089016 -17.196077)
      (xy -105.520050 -17.230206)
      (xy -105.535211 -17.247028)
      (xy -105.402302 -17.594833)
      (xy -105.027671 -18.514787)
      (xy -104.447460 -19.919709)
      (xy -103.697814 -21.722413)
      (xy -102.814874 -23.835716)
      (xy -102.571413 -24.416197)
      (xy -100.064241 -24.416197)
      (xy -99.970527 -24.182529)
      (xy -99.396847 -24.041247)
      (xy -98.251041 -23.977035)
      (xy -97.373349 -23.969014)
      (xy -94.501135 -23.969014)
      (xy -95.755917 -27.099295)
      (xy -96.329776 -28.492057)
      (xy -96.828051 -29.630930)
      (xy -97.177799 -30.352438)
      (xy -97.277390 -30.509082)
      (xy -97.514993 -30.327652)
      (xy -97.927988 -29.607442)
      (xy -98.445241 -28.481353)
      (xy -98.713499 -27.825983)
      (xy -99.258604 -26.446325)
      (xy -99.713786 -25.296660)
      (xy -100.007385 -24.557889)
      (xy -100.064241 -24.416197)
      (xy -102.571413 -24.416197)
      (xy -101.855620 -26.122849)
      (xy -100.736537 -28.773798)
      (xy -99.850265 -30.834847)
      (xy -99.159440 -32.378617)
      (xy -98.626697 -33.477730)
      (xy -98.214672 -34.204809)
      (xy -97.886001 -34.632474)
      (xy -97.603319 -34.833348)
      (xy -97.349875 -34.880281)
    )

    (stroke (width 0.000000) (type solid)) (fill solid) (layer "F.SilkS") (tstamp cb184db6-1d0b-4d9b-8763-d1679ddf783f))
  (fp_poly
    (pts
      (xy -75.014177 -35.047278)
      (xy -74.667994 -34.953389)
      (xy -74.569240 -34.690095)
      (xy -74.746636 -34.170006)
      (xy -75.228900 -33.305731)
      (xy -76.044751 -32.009877)
      (xy -77.131272 -30.335853)
      (xy -78.054022 -28.890081)
      (xy -78.812981 -27.647541)
      (xy -79.331651 -26.737309)
      (xy -79.533534 -26.288458)
      (xy -79.533938 -26.281872)
      (xy -79.346199 -25.860273)
      (xy -78.829438 -24.972543)
      (xy -78.059336 -23.742589)
      (xy -77.111576 -22.294318)
      (xy -76.959578 -22.067116)
      (xy -75.750028 -20.259327)
      (xy -74.909314 -18.962317)
      (xy -74.409732 -18.091310)
      (xy -74.223577 -17.561530)
      (xy -74.323147 -17.288201)
      (xy -74.680738 -17.186545)
      (xy -75.268646 -17.171787)
      (xy -75.359872 -17.171831)
      (xy -75.974246 -17.195019)
      (xy -76.457387 -17.334419)
      (xy -76.918054 -17.694780)
      (xy -77.465005 -18.380853)
      (xy -78.206998 -19.497388)
      (xy -78.886175 -20.568193)
      (xy -79.760578 -21.924622)
      (xy -80.504207 -23.023927)
      (xy -81.032066 -23.743941)
      (xy -81.250617 -23.966785)
      (xy -81.523399 -23.687007)
      (xy -82.097224 -22.925534)
      (xy -82.885381 -21.801983)
      (xy -83.712676 -20.570422)
      (xy -84.696793 -19.097903)
      (xy -85.402493 -18.125670)
      (xy -85.935630 -17.550466)
      (xy -86.402060 -17.269035)
      (xy -86.907639 -17.178119)
      (xy -87.196812 -17.171831)
      (xy -88.026820 -17.243266)
      (xy -88.279334 -17.501557)
      (xy -88.234263 -17.707789)
      (xy -87.970226 -18.194015)
      (xy -87.391440 -19.149469)
      (xy -86.577316 -20.446248)
      (xy -85.607265 -21.956448)
      (xy -85.368654 -22.323284)
      (xy -82.708712 -26.402820)
      (xy -85.357173 -30.366274)
      (xy -86.337637 -31.859604)
      (xy -87.154034 -33.152674)
      (xy -87.731894 -34.123786)
      (xy -87.996750 -34.651246)
      (xy -88.005633 -34.694441)
      (xy -87.691456 -34.936721)
      (xy -86.920134 -35.056436)
      (xy -86.769329 -35.059155)
      (xy -86.195342 -35.021327)
      (xy -85.719031 -34.836292)
      (xy -85.230032 -34.396726)
      (xy -84.617978 -33.595302)
      (xy -83.772504 -32.324696)
      (xy -83.460174 -31.841144)
      (xy -82.598781 -30.528521)
      (xy -81.877175 -29.474970)
      (xy -81.382188 -28.804440)
      (xy -81.208450 -28.627039)
      (xy -80.952002 -28.909174)
      (xy -80.396557 -29.669826)
      (xy -79.629720 -30.785458)
      (xy -78.926502 -31.845049)
      (xy -77.978221 -33.272033)
      (xy -77.299775 -34.200029)
      (xy -76.780070 -34.735708)
      (xy -76.308010 -34.985738)
      (xy -75.772501 -35.056791)
      (xy -75.579072 -35.059155)
    )

    (stroke (width 0.000000) (type solid)) (fill solid) (layer "F.SilkS") (tstamp 50daaa56-bb1d-4c3a-ae3e-cf99ad937b80))
  (fp_poly
    (pts
      (xy -63.957868 -35.051271)
      (xy -62.373044 -35.029547)
      (xy -61.194541 -34.996875)
      (xy -60.546024 -34.956148)
      (xy -60.459155 -34.933665)
      (xy -60.564692 -34.545549)
      (xy -60.821793 -33.768279)
      (xy -60.851898 -33.681553)
      (xy -61.244641 -32.554929)
      (xy -65.161201 -32.554929)
      (xy -69.077761 -32.554929)
      (xy -68.971979 -30.140140)
      (xy -68.866197 -27.725352)
      (xy -65.378169 -27.622960)
      (xy -61.890140 -27.520569)
      (xy -61.890140 -26.473239)
      (xy -61.890140 -25.425909)
      (xy -65.378169 -25.323518)
      (xy -68.866197 -25.221126)
      (xy -68.970682 -22.448591)
      (xy -69.075167 -19.676056)
      (xy -65.116053 -19.676056)
      (xy -63.388927 -19.670432)
      (xy -62.242018 -19.634349)
      (xy -61.540052 -19.538993)
      (xy -61.147754 -19.355548)
      (xy -60.929850 -19.055201)
      (xy -60.808047 -18.758401)
      (xy -60.547343 -17.959910)
      (xy -60.459155 -17.506288)
      (xy -60.799279 -17.383130)
      (xy -61.749522 -17.282462)
      (xy -63.204685 -17.210840)
      (xy -65.059570 -17.174821)
      (xy -65.825352 -17.171831)
      (xy -71.191549 -17.171831)
      (xy -71.191549 -26.115493)
      (xy -71.191549 -35.059155)
      (xy -65.825352 -35.059155)
    )

    (stroke (width 0.000000) (type solid)) (fill solid) (layer "F.SilkS") (tstamp 6b056bbc-8f7b-4463-9120-a85ef5f1cfdc))
  (fp_poly
    (pts
      (xy -44.978077 -34.991747)
      (xy -43.823943 -34.880281)
      (xy -43.823943 -26.115493)
      (xy -43.823737 -22.989815)
      (xy -43.851890 -20.562332)
      (xy -43.951559 -18.815900)
      (xy -44.165900 -17.733374)
      (xy -44.538071 -17.297610)
      (xy -45.111228 -17.491462)
      (xy -45.928529 -18.297786)
      (xy -47.033130 -19.699438)
      (xy -48.468188 -21.679273)
      (xy -49.905633 -23.699462)
      (xy -54.556338 -30.229577)
      (xy -54.653845 -23.700704)
      (xy -54.751351 -17.171831)
      (xy -55.995394 -17.171831)
      (xy -57.239436 -17.171831)
      (xy -57.239436 -26.115493)
      (xy -57.239436 -35.059155)
      (xy -56.201774 -35.059155)
      (xy -55.819746 -35.010501)
      (xy -55.420110 -34.816264)
      (xy -54.938848 -34.404029)
      (xy -54.311939 -33.701379)
      (xy -53.475364 -32.635900)
      (xy -52.365105 -31.135176)
      (xy -50.917141 -29.126792)
      (xy -50.746140 -28.888028)
      (xy -46.328169 -22.716901)
      (xy -46.230190 -28.910057)
      (xy -46.132211 -35.103213)
    )

    (stroke (width 0.000000) (type solid)) (fill solid) (layer "F.SilkS") (tstamp 3c4b4d97-7974-4581-aa28-6ff6543845cc))
  (fp_poly
    (pts
      (xy -20.749295 -26.115493)
      (xy -20.749295 -17.171831)
      (xy -22.001408 -17.171831)
      (xy -23.253521 -17.171831)
      (xy -23.253521 -26.115493)
      (xy -23.253521 -35.059155)
      (xy -22.001408 -35.059155)
      (xy -20.749295 -35.059155)
    )

    (stroke (width 0.000000) (type solid)) (fill solid) (layer "F.SilkS") (tstamp 502b15ff-263f-49bb-87fe-17c72a304345))
  (fp_poly
    (pts
      (xy -9.729717 -34.825767)
      (xy -9.441667 -34.612466)
      (xy -9.107398 -34.165739)
      (xy -8.688257 -33.410949)
      (xy -8.145590 -32.273456)
      (xy -7.440745 -30.678623)
      (xy -6.535068 -28.551812)
      (xy -5.692490 -26.542902)
      (xy -4.730832 -24.240408)
      (xy -3.855062 -22.140467)
      (xy -3.104827 -20.338398)
      (xy -2.519775 -18.929517)
      (xy -2.139554 -18.009142)
      (xy -2.009520 -17.688677)
      (xy -2.047984 -17.341853)
      (xy -2.600788 -17.190970)
      (xy -3.183011 -17.171831)
      (xy -3.935404 -17.202474)
      (xy -4.416697 -17.396941)
      (xy -4.780743 -17.909037)
      (xy -5.181397 -18.892567)
      (xy -5.341672 -19.329807)
      (xy -6.128510 -21.487784)
      (xy -10.077044 -21.386849)
      (xy -14.025579 -21.285915)
      (xy -14.813602 -19.318309)
      (xy -15.291155 -18.209836)
      (xy -15.703539 -17.605985)
      (xy -16.223469 -17.336586)
      (xy -16.923348 -17.239672)
      (xy -17.776387 -17.194395)
      (xy -18.223479 -17.222171)
      (xy -18.242967 -17.239672)
      (xy -18.109020 -17.585255)
      (xy -17.732514 -18.502799)
      (xy -17.149712 -19.905335)
      (xy -16.396876 -21.705892)
      (xy -15.510271 -23.817503)
      (xy -15.258026 -24.416197)
      (xy -12.774100 -24.416197)
      (xy -12.680562 -24.183290)
      (xy -12.108369 -24.042101)
      (xy -10.965411 -23.977448)
      (xy -10.060396 -23.969014)
      (xy -7.165370 -23.969014)
      (xy -7.915877 -25.847183)
      (xy -8.468485 -27.246528)
      (xy -9.019156 -28.666286)
      (xy -9.239935 -29.245774)
      (xy -9.627032 -30.153405)
      (xy -9.945227 -30.697110)
      (xy -10.038094 -30.766197)
      (xy -10.260103 -30.456685)
      (xy -10.663961 -29.628731)
      (xy -11.178633 -28.433205)
      (xy -11.427740 -27.814788)
      (xy -11.971874 -26.437635)
      (xy -12.426055 -25.290554)
      (xy -12.718430 -24.554915)
      (xy -12.774100 -24.416197)
      (xy -15.258026 -24.416197)
      (xy -14.542070 -26.115493)
      (xy -13.418590 -28.765570)
      (xy -12.528971 -30.826258)
      (xy -11.835662 -32.370181)
      (xy -11.301113 -33.469965)
      (xy -10.887770 -34.198235)
      (xy -10.558084 -34.627617)
      (xy -10.274503 -34.830738)
      (xy -10.010202 -34.880281)
    )

    (stroke (width 0.000000) (type solid)) (fill solid) (layer "F.SilkS") (tstamp 0e6983cc-74e9-4e2c-bf4d-37bbe1f09927))
  (fp_poly
    (pts
      (xy 10.285212 -35.050620)
      (xy 12.546462 -34.973043)
      (xy 14.258863 -34.727206)
      (xy 15.578104 -34.269557)
      (xy 16.659878 -33.556544)
      (xy 17.109977 -33.141479)
      (xy 17.903287 -32.225284)
      (xy 18.313678 -31.315437)
      (xy 18.496029 -30.060859)
      (xy 18.501637 -29.986860)
      (xy 18.410271 -27.957512)
      (xy 17.784026 -26.356011)
      (xy 16.594649 -25.152238)
      (xy 14.813888 -24.316071)
      (xy 12.758393 -23.863736)
      (xy 10.042734 -23.472506)
      (xy 9.940381 -20.411605)
      (xy 9.838029 -17.350704)
      (xy 8.675352 -17.238601)
      (xy 7.512676 -17.126498)
      (xy 7.512676 -26.092826)
      (xy 7.512676 -32.554929)
      (xy 10.016902 -32.554929)
      (xy 10.016902 -29.335211)
      (xy 10.016902 -26.115493)
      (xy 11.964558 -26.115493)
      (xy 13.329392 -26.202934)
      (xy 14.272647 -26.517211)
      (xy 14.838608 -26.920422)
      (xy 15.628545 -27.988276)
      (xy 15.975912 -29.050305)
      (xy 16.036447 -29.993245)
      (xy 15.762720 -30.706724)
      (xy 15.096987 -31.465093)
      (xy 14.351454 -32.113549)
      (xy 13.605671 -32.439609)
      (xy 12.561626 -32.548555)
      (xy 12.012026 -32.554929)
      (xy 10.016902 -32.554929)
      (xy 7.512676 -32.554929)
      (xy 7.512676 -35.059155)
    )

    (stroke (width 0.000000) (type solid)) (fill solid) (layer "F.SilkS") (tstamp 6058cb16-513d-409e-aa0d-964c61812a12))
  (fp_poly
    (pts
      (xy 27.059937 -34.824917)
      (xy 27.348294 -34.609380)
      (xy 27.684367 -34.159506)
      (xy 28.106657 -33.401130)
      (xy 28.653661 -32.260085)
      (xy 29.363879 -30.662207)
      (xy 30.275809 -28.533331)
      (xy 31.144865 -26.473239)
      (xy 32.106982 -24.168438)
      (xy 32.970309 -22.069793)
      (xy 33.697401 -20.270826)
      (xy 34.250813 -18.865059)
      (xy 34.593098 -17.946014)
      (xy 34.690054 -17.619014)
      (xy 34.375384 -17.295755)
      (xy 33.513830 -17.171878)
      (xy 33.492914 -17.171831)
      (xy 32.821759 -17.215610)
      (xy 32.372126 -17.449634)
      (xy 32.000145 -18.027928)
      (xy 31.561950 -19.104520)
      (xy 31.477476 -19.329579)
      (xy 30.670532 -21.487327)
      (xy 26.715076 -21.386621)
      (xy 22.759620 -21.285915)
      (xy 21.971722 -19.318309)
      (xy 21.492315 -18.208059)
      (xy 21.077591 -17.603271)
      (xy 20.557231 -17.333606)
      (xy 19.893321 -17.239672)
      (xy 19.060831 -17.237538)
      (xy 18.641554 -17.373219)
      (xy 18.628843 -17.418545)
      (xy 18.770484 -17.813372)
      (xy 19.156013 -18.775991)
      (xy 19.748122 -20.216271)
      (xy 20.509505 -22.044081)
      (xy 21.392820 -24.145418)
      (xy 23.969014 -24.145418)
      (xy 24.298369 -24.063130)
      (xy 25.173001 -24.001329)
      (xy 26.422764 -23.970606)
      (xy 26.802954 -23.969014)
      (xy 29.636893 -23.969014)
      (xy 28.382111 -27.099295)
      (xy 27.806620 -28.494116)
      (xy 27.304621 -29.636882)
      (xy 26.949813 -30.363209)
      (xy 26.847549 -30.522171)
      (xy 26.638728 -30.310214)
      (xy 26.239535 -29.598599)
      (xy 25.724456 -28.552334)
      (xy 25.167977 -27.336429)
      (xy 24.644585 -26.115890)
      (xy 24.228767 -25.055726)
      (xy 23.995008 -24.320945)
      (xy 23.969014 -24.145418)
      (xy 21.392820 -24.145418)
      (xy 21.402856 -24.169293)
      (xy 22.302718 -26.294366)
      (xy 23.421229 -28.914366)
      (xy 24.305235 -30.946046)
      (xy 24.992904 -32.462585)
      (xy 25.522402 -33.537162)
      (xy 25.931896 -34.242955)
      (xy 26.259555 -34.653143)
      (xy 26.543544 -34.840905)
      (xy 26.780799 -34.880281)
    )

    (stroke (width 0.000000) (type solid)) (fill solid) (layer "F.SilkS") (tstamp 47868735-481d-413a-9a0e-6966ead36b0c))
  (fp_poly
    (pts
      (xy 41.230282 -34.992088)
      (xy 43.497437 -34.829661)
      (xy 45.188045 -34.519279)
      (xy 46.434298 -34.011073)
      (xy 47.368388 -33.255174)
      (xy 47.973764 -32.448124)
      (xy 48.463208 -31.356079)
      (xy 48.575749 -30.075505)
      (xy 48.544517 -29.576872)
      (xy 48.199956 -27.885533)
      (xy 47.432426 -26.589993)
      (xy 46.142469 -25.574970)
      (xy 44.417215 -24.792900)
      (xy 44.096470 -24.640369)
      (xy 43.983158 -24.420315)
      (xy 44.133178 -24.039833)
      (xy 44.602427 -23.406018)
      (xy 45.446802 -22.425964)
      (xy 46.641423 -21.096129)
      (xy 47.796449 -19.799280)
      (xy 48.754024 -18.688085)
      (xy 49.422534 -17.871511)
      (xy 49.710371 -17.458527)
      (xy 49.715053 -17.440140)
      (xy 49.406078 -17.270103)
      (xy 48.622355 -17.177513)
      (xy 48.338634 -17.171831)
      (xy 47.764914 -17.201180)
      (xy 47.258176 -17.344759)
      (xy 46.715361 -17.685861)
      (xy 46.033411 -18.307783)
      (xy 45.109267 -19.293818)
      (xy 43.839870 -20.727262)
      (xy 43.598493 -21.002954)
      (xy 40.246479 -24.834077)
      (xy 40.067606 -21.092390)
      (xy 39.888733 -17.350704)
      (xy 38.726057 -17.238601)
      (xy 37.563381 -17.126498)
      (xy 37.563381 -26.133402)
      (xy 37.563381 -32.554929)
      (xy 40.067606 -32.554929)
      (xy 40.067606 -29.692957)
      (xy 40.067606 -26.830986)
      (xy 42.062731 -26.830986)
      (xy 43.309119 -26.885495)
      (xy 44.137642 -27.116347)
      (xy 44.841947 -27.624524)
      (xy 45.103576 -27.876706)
      (xy 45.946786 -29.078457)
      (xy 46.082684 -30.269161)
      (xy 45.509830 -31.416145)
      (xy 45.271191 -31.676824)
      (xy 44.637007 -32.189606)
      (xy 43.886412 -32.456238)
      (xy 42.766832 -32.549656)
      (xy 42.230346 -32.554929)
      (xy 40.067606 -32.554929)
      (xy 37.563381 -32.554929)
      (xy 37.563381 -35.140305)
    )

    (stroke (width 0.000000) (type solid)) (fill solid) (layer "F.SilkS") (tstamp 3af509d9-8a13-4ffe-97c1-59fd6e886bee))
  (fp_poly
    (pts
      (xy 59.088579 -34.986992)
      (xy 59.385159 -34.721652)
      (xy 59.744678 -34.189854)
      (xy 60.204479 -33.318320)
      (xy 60.801908 -32.033769)
      (xy 61.574310 -30.262924)
      (xy 62.559029 -27.932504)
      (xy 63.056445 -26.741549)
      (xy 64.017383 -24.432335)
      (xy 64.894906 -22.317344)
      (xy 65.648787 -20.494036)
      (xy 66.238797 -19.059872)
      (xy 66.624706 -18.112310)
      (xy 66.758242 -17.773451)
      (xy 66.820264 -17.355826)
      (xy 66.483496 -17.204454)
      (xy 65.655740 -17.236831)
      (xy 64.884051 -17.351244)
      (xy 64.379950 -17.644074)
      (xy 63.969435 -18.285673)
      (xy 63.529687 -19.318309)
      (xy 62.741789 -21.285915)
      (xy 58.786333 -21.386621)
      (xy 54.830877 -21.487327)
      (xy 54.023933 -19.329579)
      (xy 53.564016 -18.161828)
      (xy 53.193307 -17.515674)
      (xy 52.765100 -17.237237)
      (xy 52.132683 -17.172633)
      (xy 51.966770 -17.171831)
      (xy 51.133876 -17.237764)
      (xy 50.852057 -17.496287)
      (xy 50.886396 -17.797887)
      (xy 51.067469 -18.289730)
      (xy 51.487409 -19.343780)
      (xy 52.106542 -20.863199)
      (xy 52.885192 -22.751145)
      (xy 53.391873 -23.969014)
      (xy 55.862657 -23.969014)
      (xy 58.721634 -23.969014)
      (xy 60.137786 -23.982389)
      (xy 60.970750 -24.044885)
      (xy 61.352659 -24.190057)
      (xy 61.415647 -24.451460)
      (xy 61.367367 -24.640884)
      (xy 61.140651 -25.267892)
      (xy 60.720249 -26.359617)
      (xy 60.182772 -27.718305)
      (xy 59.968230 -28.252413)
      (xy 58.782337 -31.192073)
      (xy 57.322497 -27.580544)
      (xy 55.862657 -23.969014)
      (xy 53.391873 -23.969014)
      (xy 53.783684 -24.910779)
      (xy 54.550560 -26.741549)
      (xy 55.646504 -29.334169)
      (xy 56.512406 -31.336286)
      (xy 57.185762 -32.820987)
      (xy 57.704068 -33.861361)
      (xy 58.104817 -34.530495)
      (xy 58.425505 -34.901479)
      (xy 58.703628 -35.047400)
      (xy 58.817591 -35.059155)
    )

    (stroke (width 0.000000) (type solid)) (fill solid) (layer "F.SilkS") (tstamp 7977c371-2cea-4229-91f8-4fa7b61a134c))
  (fp_poly
    (pts
      (xy 82.741194 -34.985071)
      (xy 83.036199 -34.715217)
      (xy 83.397132 -34.178188)
      (xy 83.860181 -33.302576)
      (xy 84.461536 -32.016977)
      (xy 85.237386 -30.249985)
      (xy 86.223920 -27.930194)
      (xy 86.875516 -26.378271)
      (xy 87.847954 -24.045131)
      (xy 88.722208 -21.927606)
      (xy 89.461876 -20.115488)
      (xy 90.030560 -18.698569)
      (xy 90.391858 -17.766642)
      (xy 90.509860 -17.413014)
      (xy 90.197042 -17.254315)
      (xy 89.425194 -17.226135)
      (xy 89.231621 -17.239672)
      (xy 88.489543 -17.358228)
      (xy 87.997073 -17.667260)
      (xy 87.585152 -18.337399)
      (xy 87.172104 -19.318309)
      (xy 86.390824 -21.285915)
      (xy 82.458088 -21.385517)
      (xy 78.525352 -21.485119)
      (xy 77.691215 -19.328475)
      (xy 77.215331 -18.161563)
      (xy 76.833844 -17.515362)
      (xy 76.400667 -17.236710)
      (xy 75.769716 -17.172451)
      (xy 75.634173 -17.171831)
      (xy 74.817883 -17.235379)
      (xy 74.419090 -17.391154)
      (xy 74.411268 -17.419107)
      (xy 74.544392 -17.802379)
      (xy 74.919502 -18.755592)
      (xy 75.500208 -20.189567)
      (xy 76.250118 -22.015128)
      (xy 77.132841 -24.143096)
      (xy 77.180569 -24.257241)
      (xy 79.777465 -24.257241)
      (xy 80.105974 -24.119471)
      (xy 80.974957 -24.017555)
      (xy 82.209601 -23.970273)
      (xy 82.460564 -23.969014)
      (xy 83.743130 -23.995684)
      (xy 84.691878 -24.066232)
      (xy 85.131959 -24.166465)
      (xy 85.143662 -24.186818)
      (xy 85.024159 -24.602433)
      (xy 84.709740 -25.477051)
      (xy 84.266544 -26.643511)
      (xy 83.760707 -27.934653)
      (xy 83.258368 -29.183317)
      (xy 82.825664 -30.222341)
      (xy 82.528732 -30.884567)
      (xy 82.434825 -31.033307)
      (xy 82.247551 -30.650190)
      (xy 81.879631 -29.776955)
      (xy 81.401594 -28.593440)
      (xy 80.883966 -27.279484)
      (xy 80.397274 -26.014925)
      (xy 80.012045 -24.979604)
      (xy 79.798807 -24.353357)
      (xy 79.777465 -24.257241)
      (xy 77.180569 -24.257241)
      (xy 78.060973 -26.362769)
      (xy 79.183746 -29.022512)
      (xy 80.075181 -31.089946)
      (xy 80.771468 -32.636357)
      (xy 81.308798 -33.733033)
      (xy 81.723361 -34.451259)
      (xy 82.051348 -34.862323)
      (xy 82.328950 -35.037510)
      (xy 82.475926 -35.059155)
    )

    (stroke (width 0.000000) (type solid)) (fill solid) (layer "F.SilkS") (tstamp 084de1cb-66f1-4eb6-91b2-1af1a9dc4064))
)
