(footprint "Breakout-16_W7.62mm" (version 20211014) (generator pcbnew)
  (layer "F.Cu")
  (tedit 589E525F)
  (descr "16-lead breakout, row spacing 7.62 mm (600 mils)")
  (tags "breakout 2.54 600")
  (attr through_hole)
  (fp_text reference "REF**" (at 7.4 -5.475) (layer "F.SilkS")
    (effects (font (size 1 1) (thickness 0.15)))
    (tstamp 25195606-d248-463e-b816-ca0e66e5f431)
  )
  (fp_text value "breakout-16_W7.62mm" (at 7.225 -3.8) (layer "F.Fab")
    (effects (font (size 1 1) (thickness 0.15)))
    (tstamp 2efa3293-4f4e-4311-a7cd-7a19479d531e)
  )
  (fp_line (start 16.256 -2.54) (end -1.016 -2.54) (layer "F.SilkS") (width 0.12) (tstamp 1cd904ad-1104-4cdf-b87d-4e9f2fb1ede2))
  (fp_line (start -1.016 -2.54) (end -1.016 -2.032) (layer "F.SilkS") (width 0.12) (tstamp 57f7c412-2c96-4776-a860-b1c425a74645))
  (fp_line (start -1.016 -2.032) (end -1.016 20.32) (layer "F.SilkS") (width 0.12) (tstamp ab1d3ce5-87cc-47ec-bf60-7821e5e3199c))
  (fp_line (start -1.016 20.32) (end 16.256 20.32) (layer "F.SilkS") (width 0.12) (tstamp daf544ea-a6f9-4e17-97b4-b11e409153cb))
  (fp_line (start 16.256 20.32) (end 16.256 -2.54) (layer "F.SilkS") (width 0.12) (tstamp f317fee8-273b-435e-9f64-a069e5e84b97))
  (fp_arc (start 9.144 -2.54) (mid 7.62 -1.016) (end 6.096 -2.54) (layer "F.SilkS") (width 0.12) (tstamp 8d669cca-3b4f-4b6b-8fe6-fa2b20ff552c))
  (fp_line (start 16.3 -2.45) (end 16.3 20.25) (layer "F.CrtYd") (width 0.05) (tstamp 261ece62-80e2-4418-b4a9-01186e9dfd95))
  (fp_line (start -1.05 20.25) (end 16.3 20.25) (layer "F.CrtYd") (width 0.05) (tstamp 660890fc-b244-47fe-aa57-3a70f2263703))
  (fp_line (start -1.05 -2.45) (end -1.05 20.25) (layer "F.CrtYd") (width 0.05) (tstamp 67305723-cb0d-49b4-b15d-4a241d947521))
  (fp_line (start -1.05 -2.45) (end 16.3 -2.45) (layer "F.CrtYd") (width 0.05) (tstamp 8e8ed884-3e7a-46dc-a6e5-f2ee89e8c771))
  (pad "1" thru_hole oval (at 0 0) (size 1.6 1.6) (drill 0.8) (layers *.Cu *.Mask "F.SilkS") (tstamp 12f42e54-4fa4-47ee-a08c-e00dbb55095d))
  (pad "2" thru_hole oval (at 0 2.54) (size 1.6 1.6) (drill 0.8) (layers *.Cu *.Mask "F.SilkS") (tstamp 0f5064af-22e8-47d3-8f15-fb1c0203aea0))
  (pad "3" thru_hole oval (at 0 5.08) (size 1.6 1.6) (drill 0.8) (layers *.Cu *.Mask "F.SilkS") (tstamp dce0d131-11ba-480d-86cd-b47f6e426608))
  (pad "4" thru_hole oval (at 0 7.62) (size 1.6 1.6) (drill 0.8) (layers *.Cu *.Mask "F.SilkS") (tstamp 97942a47-bbc2-47c1-9ba5-d82e32d42bd1))
  (pad "5" thru_hole oval (at 0 10.16) (size 1.6 1.6) (drill 0.8) (layers *.Cu *.Mask "F.SilkS") (tstamp 907daffb-66c3-4d9e-8f00-24b447350e55))
  (pad "6" thru_hole oval (at 0 12.7) (size 1.6 1.6) (drill 0.8) (layers *.Cu *.Mask "F.SilkS") (tstamp 1ba6c87c-026c-4085-843d-de7c7709adfe))
  (pad "7" thru_hole oval (at 0 15.24) (size 1.6 1.6) (drill 0.8) (layers *.Cu *.Mask "F.SilkS") (tstamp c174beb5-f7b2-444a-b907-bea9caf724ab))
  (pad "8" thru_hole oval (at 0 17.78) (size 1.6 1.6) (drill 0.8) (layers *.Cu *.Mask "F.SilkS") (tstamp c0b32835-cb10-47f2-bbfc-0761d8a51ba8))
  (pad "9" thru_hole oval (at 15.24 17.78) (size 1.6 1.6) (drill 0.8) (layers *.Cu *.Mask "F.SilkS") (tstamp e75eb1b6-dc8e-449d-99c4-10974bb3c3f8))
  (pad "10" thru_hole oval (at 15.24 15.24) (size 1.6 1.6) (drill 0.8) (layers *.Cu *.Mask "F.SilkS") (tstamp fa1495e2-0118-4a31-81ca-6baf1ee51d72))
  (pad "11" thru_hole oval (at 15.24 12.7) (size 1.6 1.6) (drill 0.8) (layers *.Cu *.Mask "F.SilkS") (tstamp 23e167e5-8f62-4419-a581-0faac4ba81ee))
  (pad "12" thru_hole oval (at 15.24 10.16) (size 1.6 1.6) (drill 0.8) (layers *.Cu *.Mask "F.SilkS") (tstamp 67c34618-310e-47e5-b7b4-f5f49362b317))
  (pad "13" thru_hole oval (at 15.24 7.62) (size 1.6 1.6) (drill 0.8) (layers *.Cu *.Mask "F.SilkS") (tstamp e74c912c-bad7-44c5-b58d-0886de9813f2))
  (pad "14" thru_hole oval (at 15.24 5.08) (size 1.6 1.6) (drill 0.8) (layers *.Cu *.Mask "F.SilkS") (tstamp 561f5edd-530a-4b6d-811f-6d517ba40d18))
  (pad "15" thru_hole oval (at 15.24 2.54) (size 1.6 1.6) (drill 0.8) (layers *.Cu *.Mask "F.SilkS") (tstamp cfe631eb-5bae-4d2c-bdaa-c3cae1c1a611))
  (pad "16" thru_hole oval (at 15.24 0) (size 1.6 1.6) (drill 0.8) (layers *.Cu *.Mask "F.SilkS") (tstamp 2521ce77-60ca-4833-bb66-f95f3e99f88b))
)
